<?xml version="1.0" standalone="no"?>
<!DOCTYPE svg PUBLIC "-//W3C//DTD SVG 1.1//EN" "http://www.w3.org/Graphics/SVG/1.1/DTD/svg11.dtd" >
<svg xmlns="http://www.w3.org/2000/svg" xmlns:xlink="http://www.w3.org/1999/xlink" version="1.1">
<metadata></metadata>
<defs>
<font id="agendabold" horiz-adv-x="921" >
<font-face units-per-em="2048" ascent="1638" descent="-410" />
<missing-glyph horiz-adv-x="460" />
<glyph horiz-adv-x="0" />
<glyph horiz-adv-x="682" />
<glyph d="M172 1130l117 125q23 -16 51 -26q23 -10 54.5 -17.5t66.5 -7.5t64.5 7.5t52.5 17.5q27 10 51 26l116 -125q-37 -31 -81 -53q-39 -20 -91.5 -36.5t-111.5 -16.5q-61 0 -114.5 16.5t-92.5 36.5q-45 23 -82 53z" />
<glyph d="M315 1167q0 18 16.5 43t39 47.5t47 38t43.5 15.5q18 0 42.5 -15.5t47 -38t38 -47.5t15.5 -43q0 -16 -15.5 -40.5t-38 -47t-47 -39t-42.5 -16.5t-43 16.5t-47.5 39t-39 47t-16.5 40.5z" />
<glyph d="M203 1247q0 53 20.5 99.5t55 81t82 54t100.5 19.5q51 0 98 -19.5t82 -54t55.5 -81t20.5 -99.5t-20.5 -99t-55.5 -80t-82 -54.5t-98 -20.5q-53 0 -100.5 20.5t-82 54.5t-55 80t-20.5 99zM336 1247q0 -53 35 -89t90 -36q53 0 89 36t36 89q0 55 -36 90t-89 35 q-55 0 -90 -34.5t-35 -90.5z" />
<glyph unicode="&#xa;" d="M70 1063q86 72 163.5 166t131.5 186l124 -123q-55 -92 -110 -150.5t-127 -117.5zM436 1063q86 72 164 166t129 186l127 -123q-55 -90 -111.5 -150.5t-128.5 -117.5z" />
<glyph d="M274 -283q0 47 18.5 91.5t48.5 81t67.5 64.5t76.5 46h187q-47 -23 -90 -52.5t-76 -63.5t-51.5 -70.5t-18.5 -75.5q0 -37 29 -60.5t76 -23.5q78 0 133 35l-23 -142q-51 -35 -147 -34q-98 0 -164 54t-66 150z" />
<glyph d="M154 1272l129 127q49 -23 92 -51.5t86 -71.5q43 45 85 72.5t91 50.5l129 -127q-82 -35 -164 -103.5t-141 -160.5q-61 92 -143 160.5t-164 103.5z" />
<glyph unicode="&#xd;" horiz-adv-x="460" />
<glyph horiz-adv-x="1239" d="M39 63l1036 1283l125 -101l-1036 -1284z" />
<glyph horiz-adv-x="1153" d="M23 682v246h143v55q0 115 33.5 206t97 154.5t154 97.5t202.5 34q70 0 126.5 -13.5t92.5 -34.5l-22 -249q-33 18 -78 31.5t-104 13.5q-104 0 -155.5 -59.5t-51.5 -151.5v-84h575v-928h-301v682h-274v-682h-295v682h-143z" />
<glyph horiz-adv-x="1282" d="M23 682v246h143v24q0 121 38 218.5t109.5 165t176 103.5t237.5 36q109 0 214.5 -33t176.5 -90v-1028q0 -66 35 -102t82 -46l-115 -213q-53 2 -106 24.5t-96.5 64.5t-70 103.5t-26.5 143.5v901q-47 27 -143 27q-98 0 -157.5 -66.5t-59.5 -175.5v-57h184l-20 -246h-164 v-682h-295v682h-143z" />
<glyph horiz-adv-x="1034" d="M-25 616l199 115v576h318v-394l182 107v-260l-182 -105v-383h524v-272h-842v473l-88 -51z" />
<glyph horiz-adv-x="661" d="M-31 616l203 117v725h297v-553l154 90v-260l-154 -88v-330q0 -66 35 -102.5t82 -46.5l-135 -209q-47 2 -96.5 25.5t-90.5 65.5t-66.5 103.5t-25.5 141.5v180l-94 -53z" />
<glyph horiz-adv-x="1071" d="M45 0v76l350 641q41 74 91.5 162t93.5 155l-2 2h-500v271h930v-76l-353 -643q-41 -78 -91 -164t-91 -152l2 -2h555v-270h-985zM234 1682l129 127q49 -23 92 -51.5t86 -71.5q43 45 85 72.5t91 50.5l129 -127q-82 -35 -164 -103.5t-141 -160.5q-61 92 -143 160.5 t-164 103.5z" />
<glyph horiz-adv-x="894" d="M57 0v57l224 414q29 53 60.5 106.5t59.5 98.5l-2 4h-307v248h709v-58l-226 -415q-29 -53 -58.5 -102.5t-61.5 -100.5l2 -4h374v-248h-774zM184 1270l109 108q41 -20 78 -44.5t73 -59.5q37 37 73 60.5t77 43.5l111 -108q-70 -31 -139.5 -89.5t-121.5 -136.5 q-53 78 -121.5 136.5t-138.5 89.5z" />
<glyph unicode=" "  horiz-adv-x="460" />
<glyph unicode="&#x09;" horiz-adv-x="460" />
<glyph unicode="&#xa0;" horiz-adv-x="460" />
<glyph unicode="!" horiz-adv-x="548" d="M109 139q0 20 18 49t45 55.5t56.5 45t50.5 18.5q20 0 49.5 -18.5t56.5 -45t45.5 -55.5t18.5 -49t-18.5 -49t-45.5 -55.5t-56.5 -45t-49.5 -18.5t-50 18.5t-57 45t-45 55.5t-18 49zM117 1397h315l-37 -1004l-243 51z" />
<glyph unicode="&#x22;" horiz-adv-x="745" d="M74 1458h231l-45 -575h-145zM440 1458h232l-43 -575h-146z" />
<glyph unicode="#" horiz-adv-x="923" d="M61 397v160h132l45 193h-113v159h149l93 398h174l-90 -398h145l90 398h174l-90 -398h94v-159h-133l-43 -193h111v-160h-150l-92 -397h-174l92 397h-145l-92 -397h-175l91 397h-93zM369 557h143l45 193h-145z" />
<glyph unicode="$" horiz-adv-x="1005" d="M74 952q0 147 89 252t251 127v178h157v-172q86 -6 149.5 -24.5t117.5 -46.5l-25 -258q-53 35 -133 58.5t-166 23.5q-72 0 -109.5 -36t-37.5 -85q0 -47 38.5 -82t139.5 -72q180 -66 280.5 -176t100.5 -260q0 -80 -22.5 -148.5t-66.5 -122t-111 -88t-155 -47.5v-172h-157 v170q-100 6 -179 35t-147 72l25 258q66 -45 149.5 -79t192.5 -34q80 0 126 41t46 98t-43 97.5t-144 77.5q-176 66 -271 166t-95 249z" />
<glyph unicode="%" horiz-adv-x="1458" d="M59 1034q0 68 23.5 123t65.5 95t97.5 62.5t121.5 22.5t122 -22.5t98 -62.5t66.5 -95t24.5 -123t-24.5 -125t-66.5 -97t-98.5 -62.5t-121.5 -22.5q-66 0 -121.5 22.5t-97.5 62.5t-65.5 97.5t-23.5 124.5zM147 63l1039 1283l123 -101l-1035 -1284zM258 1034q0 -53 32 -88 t77 -35t77.5 35t32.5 88t-32.5 87t-77.5 34t-77 -34t-32 -87zM780 276q0 68 24.5 123.5t66.5 95.5t98.5 62.5t122.5 22.5q63 0 120.5 -22.5t98.5 -62.5t65.5 -95.5t24.5 -123.5t-24.5 -125t-65.5 -97t-98.5 -62.5t-120.5 -22.5q-66 0 -122.5 22.5t-98.5 62.5t-66.5 97.5 t-24.5 124.5zM981 276q0 -53 33 -87.5t78 -34.5q43 0 75.5 34.5t32.5 87.5t-32.5 86t-75.5 33q-45 0 -78 -32.5t-33 -86.5z" />
<glyph unicode="&#x26;" horiz-adv-x="1282" d="M59 334q0 74 16.5 129t46.5 98t67.5 76t80.5 57q-61 63 -99 135t-38 152q0 82 31 147.5t83 111.5t120.5 71.5t142.5 25.5q78 0 149.5 -25.5t126 -71.5t87 -113.5t32.5 -149.5q0 -57 -20.5 -108.5t-52 -94.5t-72.5 -77.5t-82 -57.5l205 -205q100 127 153 271l178 -181 q-23 -59 -62.5 -127.5t-92.5 -138.5l258 -258h-350l-90 90q-78 -53 -174.5 -86t-213.5 -33q-96 0 -176 29t-136 78t-87 115.5t-31 140.5zM324 346q0 -31 14 -58.5t38.5 -47t56.5 -30.5t69 -11q51 0 101 17t97 48l-256 256q-121 -59 -120 -174zM385 987q0 -41 30.5 -82 t86.5 -94q72 39 109.5 85t37.5 87q0 49 -39 91t-98 42q-53 0 -90 -41t-37 -88z" />
<glyph unicode="'" horiz-adv-x="378" d="M74 1458h231l-45 -575h-145z" />
<glyph unicode="(" horiz-adv-x="606" d="M74 510q0 287 53 523.5t156 447.5l305 -60q-102 -201 -158.5 -443.5t-56.5 -494.5q0 -266 50 -498.5t159 -467.5l-306 61q-49 109 -86.5 215.5t-63.5 219t-39 234.5t-13 263z" />
<glyph unicode=")" horiz-adv-x="606" d="M20 -430q100 201 156.5 442.5t56.5 493.5q0 266 -50 498.5t-156 470.5l303 -66q49 -109 88 -215.5t64.5 -218t39 -233.5t13.5 -263q0 -287 -53.5 -522.5t-157.5 -448.5z" />
<glyph unicode="*" horiz-adv-x="905" d="M61 1040l25 213l274 -112l-16 256l217 49l-16 -301l231 98l115 -190l-291 -78l164 -201l-148 -162l-163 254l-138 -217l-198 94l194 232z" />
<glyph unicode="+" horiz-adv-x="925" d="M68 451v229h270v254h250v-254h270v-229h-270v-254h-250v254h-270z" />
<glyph unicode="," horiz-adv-x="450" d="M37 -291q59 68 99 146.5t52 144.5q-18 2 -40.5 18.5t-43 38t-35 45t-14.5 39.5q0 23 19.5 51.5t46 54t55.5 43t49 17.5q18 0 47 -17.5t56.5 -42t47 -53t19.5 -53.5q0 -43 -23.5 -102t-60.5 -121.5t-84 -122t-94 -102.5z" />
<glyph unicode="-" horiz-adv-x="671" d="M68 451v229h536v-229h-536z" />
<glyph unicode="." horiz-adv-x="450" d="M55 139q0 20 18.5 49t45 55.5t56.5 45t50 18.5t50 -18.5t56.5 -45t45 -55.5t18.5 -49t-18.5 -49t-45 -55.5t-56 -45t-50.5 -18.5q-20 0 -50 18.5t-56.5 45t-45 55.5t-18.5 49z" />
<glyph unicode="/" horiz-adv-x="1323" d="M53 104l1043 1282l174 -143l-1039 -1288z" />
<glyph unicode="0" horiz-adv-x="1144" d="M72 655q0 178 41 307.5t109.5 212t158.5 122.5t190 40q98 0 189.5 -40t161 -122.5t110.5 -212t41 -307.5q0 -180 -41 -310t-110.5 -213t-160.5 -123t-190 -40q-100 0 -190 40t-158.5 123t-109.5 213t-41 310zM371 655q0 -109 16 -189.5t44 -132.5t63.5 -78t76.5 -26 q82 0 142.5 103.5t60.5 322.5q0 215 -60.5 319.5t-142.5 104.5q-80 0 -140 -104.5t-60 -319.5z" />
<glyph unicode="1" horiz-adv-x="702" d="M33 1028l22 260l504 45v-1333h-295v1049z" />
<glyph unicode="2" horiz-adv-x="993" d="M55 0v80q100 102 192.5 212.5t164 216t114.5 200t43 165.5q0 98 -54 149.5t-140 51.5q-74 0 -137.5 -22.5t-122.5 -61.5l-25 264q61 37 140 59.5t173 22.5q100 0 186.5 -27.5t150 -83t98 -137t34.5 -190.5q0 -80 -32.5 -170t-81.5 -177t-108.5 -166t-112.5 -136h403v-250 h-885z" />
<glyph unicode="3" horiz-adv-x="884" d="M61 276q53 -29 111.5 -40t118.5 -11q41 0 80 11.5t68.5 35t48 57t18.5 81.5q0 35 -14.5 66.5t-41 55t-61.5 38t-74 14.5q-25 0 -61 -6l-25 231q82 18 134.5 60t52.5 102q0 49 -36 81.5t-99 32.5q-51 0 -90 -8t-87 -30l-22 241q53 25 111.5 37t136.5 12q88 0 159.5 -23.5 t123 -65.5t79 -101.5t27.5 -128.5q0 -96 -47 -165t-107 -95q45 -12 90 -42t82 -76t59.5 -106.5t22.5 -134.5q0 -205 -136 -316.5t-380 -111.5q-49 0 -108.5 10.5t-106.5 30.5z" />
<glyph unicode="4" horiz-adv-x="1064" d="M18 551l564 756h274v-764h139v-228h-139v-315h-278v315h-521zM291 543h287v266q0 66 6 133l-4 2q-41 -70 -93 -137z" />
<glyph unicode="5" horiz-adv-x="927" d="M90 285q57 -31 115.5 -44.5t128.5 -13.5q92 0 153.5 49.5t61.5 129.5q0 86 -62.5 138t-156.5 52q-68 0 -112 -8t-91 -25l18 744h617l-23 -250h-307l-8 -234q10 2 19.5 2h19.5q76 0 147.5 -30.5t128 -86t90 -132t33.5 -168.5q0 -98 -32.5 -178t-96 -137.5t-157 -89.5 t-214.5 -32q-76 0 -141 13.5t-104 31.5z" />
<glyph unicode="6" horiz-adv-x="1073" d="M72 463q0 131 41 261t114.5 246.5t175 215t222.5 170.5l303 -94q-74 -37 -145.5 -87.5t-133 -108.5t-111 -121.5t-79.5 -123.5q41 35 110 35q78 0 156 -29.5t140.5 -86t101.5 -137.5t39 -183q0 -98 -35 -181t-97.5 -142.5t-147.5 -92.5t-183 -33q-96 0 -182.5 33 t-151 96.5t-101 154.5t-36.5 208zM369 428q0 -86 54 -139t126 -53q70 0 118 50t48 128q0 82 -50.5 134t-127.5 52q-53 0 -97.5 -22.5t-64.5 -73.5q-4 -16 -5 -37t-1 -39z" />
<glyph unicode="7" horiz-adv-x="1001" d="M55 1057v250h946l-536 -1307h-311l444 1057h-543z" />
<glyph unicode="8" horiz-adv-x="1089" d="M72 377q0 63 21.5 117.5t54 96.5t70.5 70.5t69 40.5q-33 14 -62.5 43t-53.5 66t-38 81t-14 91q0 78 30.5 143.5t86 112.5t133 72.5t172.5 25.5q94 0 173 -25.5t135 -73.5t87 -114.5t31 -146.5q0 -45 -14.5 -87t-39 -77t-54.5 -62.5t-60 -41.5q33 -14 71.5 -44t71.5 -73 t54.5 -97.5t21.5 -117.5q0 -94 -35 -170t-97.5 -128t-149.5 -81t-191 -29t-191.5 29t-150 81t-97 128t-34.5 170zM348 379q0 -37 15.5 -67.5t42 -53t60.5 -35t71 -12.5q39 0 72.5 12.5t59 35t41 53t15.5 67.5t-18.5 67.5t-47 54t-63.5 40t-68 24.5q-31 -8 -62.5 -24.5 t-57 -40t-43 -54t-17.5 -67.5zM393 967q0 -53 44 -95.5t116 -60.5q72 20 109.5 61.5t37.5 94.5q0 59 -45 98t-110 39q-63 0 -107.5 -39t-44.5 -98z" />
<glyph unicode="9" horiz-adv-x="1073" d="M68 889q0 98 34.5 181t97 142.5t147.5 92t183 32.5q96 0 182.5 -32.5t151 -96t101 -154.5t36.5 -208q0 -133 -41.5 -262t-115.5 -246t-175.5 -216t-219.5 -169l-304 94q74 37 145.5 87t133 108.5t111 122t79.5 122.5q-41 -35 -110 -34q-78 0 -156 29.5t-140.5 86 t-101 137t-38.5 183.5zM358 895q0 -82 49.5 -134t127.5 -52q55 0 99 22.5t64 73.5q4 16 5.5 37t1.5 39q0 43 -15.5 77.5t-40 60t-57.5 40t-70 14.5q-68 0 -116 -50t-48 -128z" />
<glyph unicode=":" horiz-adv-x="450" d="M55 139q0 20 18.5 49t45 55.5t56.5 45t50 18.5t50 -18.5t56.5 -45t45 -55.5t18.5 -49t-18.5 -49t-45 -55.5t-56 -45t-50.5 -18.5q-20 0 -50 18.5t-56.5 45t-45 55.5t-18.5 49zM55 788q0 20 18.5 49t45 56t56.5 45t50 18t50 -18t56.5 -45t45 -56t18.5 -49t-18.5 -48.5 t-45 -55.5t-56 -45t-50.5 -18q-20 0 -50 18t-56.5 45t-45 55.5t-18.5 48.5z" />
<glyph unicode=";" horiz-adv-x="450" d="M37 -291q59 68 99 146.5t52 144.5q-18 2 -40.5 18.5t-43 38t-35 45t-14.5 39.5q0 23 19.5 51.5t46 54t55.5 43t49 17.5q18 0 47 -17.5t56.5 -42t47 -53t19.5 -53.5q0 -43 -23.5 -102t-60.5 -121.5t-84 -122t-94 -102.5zM55 788q0 20 18.5 49t45 56t56.5 45t50 18t50 -18 t56.5 -45t45 -56t18.5 -49t-18.5 -48.5t-45 -55.5t-56 -45t-50.5 -18q-20 0 -50 18t-56.5 45t-45 55.5t-18.5 48.5z" />
<glyph unicode="&#x3c;" horiz-adv-x="716" d="M53 567l381 383l170 -170l-211 -213l211 -213l-168 -168z" />
<glyph unicode="=" horiz-adv-x="925" d="M68 250v227h790v-227h-790zM68 653v228h790v-228h-790z" />
<glyph unicode="&#x3e;" horiz-adv-x="716" d="M113 354l211 213l-211 213l170 170l381 -381l-381 -383z" />
<glyph unicode="?" horiz-adv-x="831" d="M45 1333q53 43 129 68.5t162 25.5q96 0 175 -27.5t134 -77.5t85 -120.5t30 -154.5q0 -102 -48 -186.5t-143 -190.5q-47 -53 -66.5 -103.5t-19.5 -97.5q0 -27 1 -43t5 -33l-245 51q-6 23 -10.5 47.5t-4.5 53.5q0 80 31 153.5t102 155.5q43 47 69 91t26 102q0 47 -37 85.5 t-107 38.5q-72 0 -133 -28.5t-112 -69.5zM203 141q0 20 18.5 49t45 55.5t56 45t50.5 18.5q20 0 50 -18.5t56.5 -45t45 -55.5t18.5 -49t-18.5 -50t-45 -56.5t-56.5 -46t-50 -19.5t-50 19.5t-56.5 46t-45 56.5t-18.5 50z" />
<glyph unicode="@" horiz-adv-x="1560" d="M72 543q0 164 65.5 309t177 253.5t262 171t320.5 62.5q131 0 240.5 -42t187.5 -115.5t121 -176t43 -221.5q0 -96 -27.5 -187t-80 -163t-125 -116t-164.5 -44q-53 0 -97.5 33t-52.5 99q-47 -68 -110.5 -99t-149.5 -31q-45 0 -88 18.5t-77 53.5t-54.5 86t-20.5 117 q0 113 43 201t111 148.5t150.5 92t164.5 31.5q78 0 139.5 -23.5t94.5 -58.5l-60 -391q-2 -10 -3 -18.5t-1 -18.5q0 -49 37 -49q31 0 61.5 25.5t56.5 69.5t42 103.5t16 127.5q0 88 -30.5 157.5t-86 117.5t-132 72.5t-168.5 24.5q-119 0 -229.5 -47t-195.5 -130t-136.5 -196.5 t-51.5 -244.5q0 -100 32 -175t85 -124t123.5 -74t148.5 -25q143 0 230 68l-25 -188q-33 -23 -91 -39.5t-132 -16.5q-127 0 -230.5 42t-177 117t-114.5 180.5t-41 232.5zM659 563q0 -49 23 -72.5t59 -23.5q51 0 93.5 52t58.5 138l29 158q-10 6 -21.5 10t-28.5 4 q-39 0 -76.5 -19t-68.5 -55t-49.5 -85t-18.5 -107z" />
<glyph unicode="A" horiz-adv-x="1288" d="M20 0l515 1317h219l514 -1317h-316l-102 272h-430l-101 -272h-299zM498 512h274l-94 262q-10 29 -20.5 63.5t-20.5 69.5h-4q-8 -35 -19.5 -69.5t-21.5 -63.5z" />
<glyph unicode="B" horiz-adv-x="1116" d="M113 0v1307h438q76 0 145.5 -25t122.5 -69t84 -108.5t31 -143.5q0 -29 -7 -62t-21.5 -62.5t-34 -54t-46.5 -39.5q41 -12 82 -44.5t73 -78t52.5 -100.5t20.5 -114q0 -96 -35 -171t-96.5 -127.5t-142.5 -80t-173 -27.5h-493zM401 238h152q37 0 71.5 10t61.5 30.5t43 52.5 t16 75q0 86 -59 127.5t-133 41.5h-152v-337zM401 809h101q55 0 99 29.5t44 101.5t-44 102.5t-99 30.5h-101v-264z" />
<glyph unicode="C" horiz-adv-x="1214" d="M72 653q0 168 63.5 296t164.5 214t228 130t256 44q123 0 217.5 -22.5t153.5 -57.5l-22 -276q-51 33 -128 57.5t-184 24.5q-90 0 -168 -28.5t-135 -83t-91 -130.5t-34 -168t34 -166.5t92.5 -129t139 -83t172.5 -28.5q106 0 187.5 21.5t134.5 56.5l-27 -285 q-55 -33 -139 -51.5t-203 -18.5q-129 0 -257 44t-229 130t-163.5 214t-62.5 296z" />
<glyph unicode="D" horiz-adv-x="1325" d="M113 0v1307h440q141 0 268 -45t223.5 -129t152.5 -205t56 -275t-56 -274.5t-152.5 -204.5t-223.5 -129t-268 -45h-440zM418 272h98q86 0 162 23.5t133 72t91 119t34 166.5q0 94 -34 166t-91 120t-133 71.5t-162 23.5h-98v-762z" />
<glyph unicode="E" horiz-adv-x="972" d="M113 0v1307h761v-260h-444v-261h363v-264h-363v-262h502v-260h-819z" />
<glyph unicode="F" horiz-adv-x="923" d="M113 0v1307h780v-260h-463v-261h381v-264h-381v-522h-317z" />
<glyph unicode="G" horiz-adv-x="1378" d="M72 653q0 168 63.5 296t165.5 214t230 130t257 44q137 0 243 -29.5t173 -74.5l-24 -279q-68 49 -159 79t-200 30q-90 0 -169 -28.5t-137 -83t-93 -132.5t-35 -174q0 -92 33 -167t90 -128t134 -81.5t167 -28.5q113 0 178 39v184h-237v244h528v-603q-170 -135 -483 -135 q-135 0 -265.5 44t-232.5 130t-164.5 214t-62.5 296z" />
<glyph unicode="H" horiz-adv-x="1363" d="M113 0v1307h317v-516h506v516h315v-1307h-315v518h-506v-518h-317z" />
<glyph unicode="I" horiz-adv-x="583" d="M133 0v1307h318v-1307h-318z" />
<glyph unicode="J" horiz-adv-x="634" d="M-96 -111q139 25 209.5 116t70.5 284v1018h318v-1047q0 -143 -38 -247.5t-102.5 -175t-147.5 -111.5t-173 -56z" />
<glyph unicode="K" horiz-adv-x="1198" d="M113 0v1307h317v-562l401 562h347l-457 -650l471 -657h-369l-393 539v-539h-317z" />
<glyph unicode="L" horiz-adv-x="972" d="M113 0v1307h317v-1035h524v-272h-841z" />
<glyph unicode="M" horiz-adv-x="1748" d="M92 0l113 1307h258l285 -549q29 -57 66.5 -135t64.5 -144h4q25 66 57.5 138.5t67.5 140.5l282 549h260l117 -1307h-311l-43 481q-4 57 -8.5 117.5t-4.5 124.5h-4q-23 -63 -52.5 -127t-57.5 -121l-246 -479h-127l-248 479q-29 57 -57.5 119.5t-52.5 126.5h-4 q0 -66 -4.5 -125t-8.5 -115l-41 -481h-305z" />
<glyph unicode="N" horiz-adv-x="1452" d="M113 0v1307h256l442 -488q47 -51 107.5 -121.5t105.5 -128.5l4 2q-6 117 -6 244v492h317v-1321h-159l-508 557q-61 68 -126 144.5t-118 141.5l-4 -2q4 -70 5 -141.5t1 -132.5v-553h-317z" />
<glyph unicode="O" horiz-adv-x="1550" d="M72 655q0 156 59 283t156.5 215t224.5 136t262 48t262 -48t225.5 -136t158 -215t59.5 -283q0 -158 -59.5 -284.5t-158 -215.5t-225.5 -137.5t-262 -48.5t-262 48.5t-224.5 137.5t-156.5 216t-59 284zM393 655q0 -92 32 -166.5t85 -128t121.5 -82t142.5 -28.5t142.5 28.5 t123 82t86 128t31.5 166.5t-31.5 166t-86 127t-123 82t-142.5 29t-142.5 -29t-121.5 -82t-85 -126.5t-32 -166.5z" />
<glyph unicode="P" horiz-adv-x="1046" d="M113 0v1307h479q84 0 160.5 -28t135 -78t92.5 -124t34 -166t-34 -165.5t-92.5 -125t-135 -79t-160.5 -27.5h-174v-514h-305zM418 764h129q61 0 112.5 34.5t51.5 112.5q0 74 -51.5 110t-112.5 36h-129v-293z" />
<glyph unicode="Q" horiz-adv-x="1550" d="M72 653q0 158 59 285t157.5 216t225.5 137t262 48t262 -48t224.5 -137t157 -216t59.5 -285q0 -111 -35 -210t-92.5 -178t-132 -134t-154.5 -82v-4q31 -6 62.5 -19.5t95.5 -48.5q57 -29 111.5 -41t97.5 -12q37 0 66.5 4t64.5 19l-164 -248q-10 -4 -22.5 -4h-24.5 q-98 0 -180 24.5t-177 79.5q-92 53 -173 100.5t-138 75.5q-119 14 -229.5 67.5t-195.5 140.5t-136 206t-51 264zM395 653q0 -90 32 -164.5t85 -127t121.5 -81t142.5 -28.5q72 0 140.5 28.5t122 81t85 127t31.5 164.5q0 92 -31.5 167t-85 128t-122 82t-140.5 29 q-74 0 -142.5 -29t-121.5 -82t-85 -128t-32 -167z" />
<glyph unicode="R" horiz-adv-x="1193" d="M113 0v1307h487q84 0 160 -28t134 -78t93 -123.5t35 -166.5q0 -117 -58.5 -202.5t-142.5 -124.5l416 -584h-354l-353 514h-112v-514h-305zM418 764h135q61 0 112.5 34.5t51.5 112.5q0 74 -51.5 110t-112.5 36h-135v-293z" />
<glyph unicode="S" horiz-adv-x="1028" d="M59 385q187 -149 407 -149h3q88 0 135 33.5t47 92.5q0 57 -43 94.5t-164 80.5q-172 59 -260 164.5t-88 240.5q0 82 31 154.5t88 127t141 85t193 30.5q123 0 199.5 -24.5t119.5 -52.5l-24 -267q-47 31 -120 56.5t-151 25.5q-86 0 -125.5 -32.5t-39.5 -79.5t42 -80t158 -72 q78 -27 144.5 -66.5t114.5 -93t76 -119t28 -141.5q0 -193 -123 -308.5t-365 -115.5q-123 0 -223 29t-172 82z" />
<glyph unicode="T" horiz-adv-x="1144" d="M20 1055v252h1104v-254h-393v-1053h-315v1055h-396z" />
<glyph unicode="U" horiz-adv-x="1357" d="M113 446v861h317v-832q0 -100 68.5 -162.5t183.5 -62.5t184.5 62.5t69.5 162.5v832h309v-861q0 -109 -45 -196.5t-122 -149t-180 -95.5t-220 -34t-220.5 34t-180 95.5t-120.5 149.5t-44 196z" />
<glyph unicode="V" horiz-adv-x="1210" d="M-6 1307h325l205 -576q23 -66 45.5 -141.5t40.5 -149.5h4q18 74 41 150t45 141l205 576h301l-475 -1315h-260z" />
<glyph unicode="W" horiz-adv-x="1849" d="M4 1307h305l170 -529q20 -59 38 -123.5t32 -138.5h4q16 74 32.5 137.5t37.5 124.5l172 529h274l170 -527q16 -53 33.5 -122.5t34.5 -141.5h4q14 72 32.5 138.5t36.5 123.5l174 529h285l-436 -1315h-203l-190 577q-23 66 -43.5 135.5t-42.5 155.5h-4q-23 -86 -43.5 -155.5 t-42.5 -135.5l-191 -577h-203z" />
<glyph unicode="X" horiz-adv-x="1251" d="M25 0l419 664l-399 643h348l164 -265q18 -29 37.5 -63.5t34.5 -67.5h4q16 33 35.5 68t38.5 63l163 265h330l-397 -635l418 -672h-349l-174 283q-18 31 -39.5 69.5t-40.5 73.5h-4q-16 -35 -38.5 -73t-43.5 -70l-178 -283h-329z" />
<glyph unicode="Y" horiz-adv-x="1275" d="M-4 1307h338l215 -316q23 -35 48.5 -76t45.5 -79h4q23 39 49.5 80.5t48.5 74.5l216 316h315l-485 -723v-584h-308v578z" />
<glyph unicode="Z" horiz-adv-x="1071" d="M45 0v76l350 641q41 74 91.5 162t93.5 155l-2 2h-500v271h930v-76l-353 -643q-41 -78 -91 -164t-91 -152l2 -2h555v-270h-985z" />
<glyph unicode="[" horiz-adv-x="702" d="M96 -459v1905h555v-248h-260v-1409h260v-248h-555z" />
<glyph unicode="\" horiz-adv-x="1333" d="M59 1243l174 143l1041 -1282l-176 -149z" />
<glyph unicode="]" horiz-adv-x="702" d="M57 -211h262v1409h-262v248h555v-1905h-555v248z" />
<glyph unicode="^" horiz-adv-x="819" d="M53 1171q96 43 190.5 124t166.5 188q72 -106 167 -187.5t191 -124.5l-150 -147q-57 27 -107 58.5t-101 84.5q-51 -51 -100.5 -83.5t-106.5 -59.5z" />
<glyph unicode="_" horiz-adv-x="1126" d="M-2 -244h1132v-229h-1132v229z" />
<glyph unicode="`" d="M227 1186l52 215q47 -45 104 -84t117.5 -69.5t121 -54.5t115.5 -38l-133 -131q-53 14 -101 28.5t-93 33t-89.5 43t-93.5 57.5z" />
<glyph unicode="a" horiz-adv-x="991" d="M59 276q0 129 89.5 208t226.5 94l184 18v33q0 43 -33.5 69.5t-111.5 26.5q-80 0 -154 -18.5t-119 -44.5l-22 229q53 29 139 47t172 18q195 0 307.5 -96t112.5 -276v-267q0 -61 28.5 -95t77.5 -42l-104 -209q-139 10 -197 105q-47 -53 -115.5 -79t-144.5 -26 q-72 0 -132 20.5t-106 60.5t-72 96.5t-26 127.5zM322 272q0 -37 27.5 -63.5t70.5 -26.5q55 0 101 39t46 98v87l-125 -13q-66 -6 -93 -42t-27 -79z" />
<glyph unicode="b" horiz-adv-x="1075" d="M102 70v1388h291v-520q20 8 48 13t65 5q100 0 192.5 -34.5t163 -97t111.5 -151t41 -194.5q0 -121 -40 -215t-113 -158.5t-172 -99.5t-218 -35t-213 30t-156 69zM393 250q18 -8 43 -13.5t56 -5.5q109 0 171 66t62 172q0 51 -18.5 93t-49 73t-70.5 47t-83 16 q-31 0 -62.5 -8t-48.5 -18v-422z" />
<glyph unicode="c" horiz-adv-x="937" d="M61 463q0 115 42 207t113 155.5t164 97t193 33.5q92 0 166 -17t129 -48l-24 -260q-100 59 -230 59q-104 0 -176.5 -60.5t-72.5 -166.5q0 -53 21.5 -95t57 -72t83.5 -46.5t102 -16.5q61 0 115.5 13.5t113.5 44.5l-24 -268q-45 -23 -112 -37.5t-147 -14.5q-102 0 -194 34 t-164 98.5t-114 154.5t-42 205z" />
<glyph unicode="d" horiz-adv-x="1128" d="M61 453q0 113 38 206t105.5 159.5t159 102t197.5 35.5q59 0 102.5 -11t71.5 -27v540h291v-1458h-235l-7 68q-35 -47 -102.5 -70t-153.5 -23q-84 0 -166.5 32t-149.5 93.5t-109 150.5t-42 202zM350 467q0 -102 62.5 -166.5t154.5 -64.5q53 0 96.5 17t71.5 46v342 q-27 25 -69.5 41t-98.5 16q-92 0 -154.5 -64.5t-62.5 -166.5z" />
<glyph unicode="e" horiz-adv-x="1017" d="M59 469q0 113 39 203t105.5 153.5t153.5 97t186 33.5q96 0 173 -30.5t131 -81.5t82.5 -117.5t28.5 -138.5q0 -47 -10 -92l-121 -119h-462q8 -31 28.5 -62.5t54 -56.5t80.5 -41t109 -16q80 0 144.5 18.5t123.5 52.5l-26 -247q-47 -23 -116 -38.5t-161 -15.5 q-115 0 -213 35t-172 100.5t-116 156.5t-42 206zM354 569h328q2 7 2 21q0 55 -38 97t-103 42q-68 0 -120 -44t-69 -116z" />
<glyph unicode="f" horiz-adv-x="751" d="M23 682v246h143v47q0 127 37 221t102.5 155.5t155.5 92.5t196 31q90 0 160 -27l-20 -250q-55 25 -135 25q-98 0 -149.5 -58.5t-51.5 -152.5v-84h237l-20 -246h-217v-682h-295v682h-143z" />
<glyph unicode="g" horiz-adv-x="993" d="M45 -137q0 100 51 168.5t129 93.5l-106 106q6 47 38.5 83t67.5 57q-53 37 -91 99t-38 142q0 76 25.5 139.5t75 109.5t120 71.5t160.5 25.5q41 0 74 -5t63 -13q31 -8 64 -12t70 -4q49 0 90 9t71 25l21 -235q-10 -10 -38 -16.5t-52 -4.5q16 -29 16 -79q0 -68 -22.5 -124.5 t-63.5 -99.5t-96.5 -69.5t-122.5 -32.5q-29 -2 -47.5 -10t-18.5 -27q0 -20 25 -29l149 -51q135 -47 208 -126t73 -208q0 -72 -31.5 -133t-90 -106t-140.5 -70.5t-182 -25.5q-102 0 -185.5 27.5t-141.5 74.5t-91 111.5t-33 138.5zM305 -141q0 -53 46 -92t138 -39 q88 0 134.5 34.5t46.5 79.5q0 37 -27 69t-76 46l-123 35q-59 -4 -99 -40t-40 -93zM346 625q0 -51 38 -87t93 -36q53 0 92 36t39 87t-36.5 87t-94.5 36q-55 0 -93 -36t-38 -87z" />
<glyph unicode="h" horiz-adv-x="1085" d="M102 0v1458h297v-592q45 41 104.5 63.5t145.5 22.5q76 0 139.5 -23.5t108.5 -66.5t70.5 -105.5t25.5 -138.5v-618h-301v553q0 51 -34.5 90t-106.5 39q-70 0 -111 -39t-41 -94v-549h-297z" />
<glyph unicode="i" horiz-adv-x="538" d="M115 1233q0 18 17.5 45t41 51.5t50 42t44.5 17.5t45 -17.5t51.5 -42t42 -51.5t17.5 -45t-17.5 -45t-42 -51.5t-51 -41t-45.5 -16.5q-18 0 -44.5 16.5t-50 41t-41 51t-17.5 45.5zM119 0v928h303v-928h-303z" />
<glyph unicode="j" horiz-adv-x="536" d="M-57 -283q88 16 132 77t44 171v963h301v-983q0 -90 -26.5 -165t-74 -130.5t-111 -90t-136.5 -46.5zM113 1233q0 18 17 45t42 51.5t51.5 42t44.5 17.5t45 -17.5t50.5 -42t41 -51.5t17.5 -45t-17.5 -45t-41 -51.5t-50 -41t-45.5 -16.5q-18 0 -44.5 16.5t-51.5 41t-42 51 t-17 45.5z" />
<glyph unicode="k" horiz-adv-x="1028" d="M102 0v1458h297v-909l281 379h317l-319 -445l348 -483h-350l-277 375v-375h-297z" />
<glyph unicode="l" horiz-adv-x="583" d="M123 295v1163h297v-1141q0 -66 33.5 -102.5t81.5 -46.5l-134 -209q-47 2 -96 25.5t-90 65.5t-66.5 103.5t-25.5 141.5z" />
<glyph unicode="m" horiz-adv-x="1642" d="M92 0v928h264l9 -92q35 47 103.5 81.5t166.5 34.5q94 0 159.5 -34.5t104.5 -83.5q41 49 124 83.5t185 34.5q164 0 253 -89t89 -230v-633h-301v571q0 49 -35.5 79t-97.5 30q-63 0 -103 -31t-40 -82v-567h-301v571q0 49 -36 79t-101 30q-61 0 -101.5 -31t-40.5 -82v-567 h-301z" />
<glyph unicode="n" horiz-adv-x="1079" d="M92 0v928h264l9 -92q41 53 109.5 84.5t168.5 31.5q76 0 139.5 -23.5t108.5 -66.5t70.5 -105.5t25.5 -138.5v-618h-301v553q0 51 -35 90t-106 39q-70 0 -111 -39t-41 -94v-549h-301z" />
<glyph unicode="o" horiz-adv-x="1132" d="M61 463q0 109 40 200t109 156.5t161 101t196 35.5t196.5 -35.5t160 -101t107.5 -156.5t40 -200t-40 -199t-107.5 -155.5t-159.5 -101.5t-197 -36q-104 0 -196 36t-161 101.5t-109 155.5t-40 199zM352 463q0 -51 17.5 -94t46 -75t68.5 -49.5t83 -17.5t82 17.5t69 49.5 t47 75t17 94t-17 95t-47 77t-69 50t-82 17t-83 -17t-68.5 -50t-46 -77t-17.5 -95z" />
<glyph unicode="p" horiz-adv-x="1128" d="M102 -473v1401h236l8 -68q35 47 102.5 69.5t151.5 22.5q82 0 166 -31.5t150.5 -93t108.5 -150.5t42 -202q0 -115 -38 -207t-105.5 -158.5t-158.5 -102.5t-198 -36q-59 0 -102 11.5t-72 27.5v-483h-291zM393 287q29 -25 72 -41.5t96 -16.5q45 0 85 17.5t69.5 48.5t46 73 t16.5 93t-16.5 93t-46 72.5t-69.5 48t-85 17.5q-53 0 -95 -17.5t-73 -45.5v-342z" />
<glyph unicode="q" horiz-adv-x="1075" d="M61 469q0 113 41 203t110 153.5t160 97t193 33.5q66 0 129.5 -13t108.5 -36l82 47h88v-1427h-291v463q-23 -8 -49.5 -13.5t-61.5 -5.5q-106 0 -199 36t-162 100.5t-109 156.5t-40 205zM350 467q0 -55 18.5 -99t49.5 -75t70.5 -47.5t82.5 -16.5q31 0 59.5 6.5t51.5 20.5 v414q-20 10 -52 18t-65 8q-88 0 -151.5 -62.5t-63.5 -166.5z" />
<glyph unicode="r" horiz-adv-x="774" d="M109 0v928h276l8 -146q43 88 126 125t198 37l22 -260h-24q-59 0 -114.5 -18.5t-98.5 -56.5t-68.5 -98t-25.5 -144v-367h-299z" />
<glyph unicode="s" horiz-adv-x="804" d="M53 311q59 -51 142.5 -82.5t171.5 -31.5q47 0 72.5 19.5t25.5 47.5q0 35 -26.5 53.5t-80.5 38.5q-129 45 -201.5 121t-72.5 187q0 63 24.5 117.5t69.5 93t108.5 60t139.5 21.5q86 0 153.5 -19t100.5 -40l-23 -227q-35 25 -90 44t-123 19q-41 0 -63.5 -18.5t-22.5 -46.5 q0 -29 25 -47.5t86 -38.5q135 -43 205.5 -121t70.5 -193q0 -59 -21.5 -113.5t-66.5 -95.5t-114.5 -64.5t-163.5 -23.5q-96 0 -174 23.5t-125 54.5z" />
<glyph unicode="t" horiz-adv-x="796" d="M20 682v246h164v180l287 109v-289h291l-23 -246h-264v-336q0 -53 32 -80.5t83 -27.5q59 0 96 14l-22 -246q-47 -22 -134 -22h-8q-78 0 -140.5 23.5t-108.5 66.5t-70.5 101t-24.5 128v379h-158z" />
<glyph unicode="u" horiz-adv-x="1079" d="M92 309v619h301v-553q0 -51 35 -90t107 -39q70 0 110.5 39t40.5 94v549h301v-928h-264l-8 92q-41 -53 -109.5 -85t-169.5 -32q-76 0 -139.5 24t-108.5 67t-70.5 104t-25.5 139z" />
<glyph unicode="v" horiz-adv-x="1001" d="M31 928h291l129 -353q14 -39 28.5 -84t24.5 -92h4q12 47 26.5 92.5t26.5 83.5l131 353h279l-359 -936h-225z" />
<glyph unicode="w" horiz-adv-x="1499" d="M41 928h274l115 -350q12 -41 24.5 -85t20.5 -90h4q10 43 22.5 89.5t24.5 85.5l115 350h227l117 -348q14 -43 24.5 -88.5t20.5 -88.5h4q10 45 21.5 90.5t25.5 86.5l115 348h262l-323 -936h-205l-123 366q-16 43 -29.5 89.5t-25.5 99.5h-4q-12 -53 -25.5 -99.5t-28.5 -87.5 l-123 -368h-206z" />
<glyph unicode="x" horiz-adv-x="944" d="M31 0l274 463l-264 465h299l96 -164q10 -20 20.5 -39.5t20.5 -42.5h4q10 23 21.5 41t23.5 41l95 164h280l-262 -447l274 -481h-301l-104 178q-10 20 -21.5 45t-21.5 47h-4q-10 -23 -23.5 -47t-23.5 -45l-103 -178h-280z" />
<glyph unicode="y" horiz-adv-x="1034" d="M31 928h297l137 -363q16 -41 29.5 -85t27.5 -95h4q12 49 25.5 93t30.5 85l139 365h283l-326 -848q-94 -246 -213 -388.5t-287 -183.5l-123 195q53 18 98.5 44t83 66t72.5 97t68 137z" />
<glyph unicode="z" horiz-adv-x="894" d="M57 0v57l224 414q29 53 60.5 106.5t59.5 98.5l-2 4h-307v248h709v-58l-226 -415q-29 -53 -58.5 -102.5t-61.5 -100.5l2 -4h374v-248h-774z" />
<glyph unicode="{" horiz-adv-x="768" d="M25 492q100 66 139 167t39 242q0 125 31.5 225.5t93 171t152.5 108.5t208 38l37 -240q-61 0 -104 -21.5t-71 -58.5t-41 -88t-13 -110q0 -160 -38 -263.5t-120 -170.5q82 -66 120 -170.5t38 -264.5q0 -121 54 -198.5t175 -77.5l-37 -242q-236 0 -360.5 146.5t-124.5 398.5 q0 141 -39 241.5t-139 166.5z" />
<glyph unicode="|" horiz-adv-x="485" d="M129 -473v1931h227v-1931h-227z" />
<glyph unicode="}" horiz-adv-x="768" d="M45 -219q121 0 174 78t53 198q0 160 38 264.5t120 170.5q-82 68 -120 171t-38 263q0 59 -12 110t-39.5 88t-71 58.5t-104.5 21.5l37 240q117 0 207 -38t152.5 -108.5t94 -171t31.5 -225.5q0 -141 39 -242t139 -167q-100 -66 -139 -166.5t-39 -241.5q0 -252 -126 -398.5 t-359 -146.5z" />
<glyph unicode="~" horiz-adv-x="831" d="M84 420l51 203q80 47 151.5 74.5t166.5 35.5l24 -141q68 10 137.5 37.5t135.5 66.5l-52 -200q-78 -53 -150.5 -79t-166.5 -34l-25 139q-66 -10 -136 -35.5t-136 -66.5z" />
<glyph unicode="&#xa1;" horiz-adv-x="548" d="M100 1169q0 20 18.5 49t45 55.5t56.5 45t50 18.5t50 -18.5t56.5 -45t45 -55.5t18.5 -49t-18.5 -48.5t-45 -55.5t-56 -45.5t-50.5 -18.5q-20 0 -50 18.5t-56.5 45.5t-45 55.5t-18.5 48.5zM117 -88l37 1003l243 -51l35 -952h-315z" />
<glyph unicode="&#xa2;" horiz-adv-x="937" d="M61 834q0 106 36 191t96.5 148.5t140.5 101.5t170 50v184h155v-186q121 -12 209 -59l-24 -263q-104 61 -230 62q-104 0 -176.5 -61.5t-72.5 -167.5q0 -53 21.5 -95.5t57 -71t83.5 -45t102 -16.5q61 0 115.5 13.5t113.5 42.5l-24 -269q-70 -35 -175 -47v-178h-155v178 q-90 12 -171 50t-141.5 101.5t-95.5 147.5t-35 189z" />
<glyph unicode="&#xa3;" horiz-adv-x="899" d="M23 565v164h143v105q0 127 37 221t101.5 155.5t154.5 92t196 30.5q43 0 83 -8t69 -22l-21 -246q-59 25 -141 24q-82 0 -132 -58t-50 -140v-154h260l-14 -164h-246v-69q0 -76 -12.5 -137.5t-30.5 -102.5q29 4 67.5 7t85.5 3q72 0 143.5 -10t131.5 -29l-17 -250 q-51 23 -124.5 34.5t-155.5 11.5q-84 0 -155.5 -11.5t-119.5 -29.5l-213 112q47 74 75 174.5t28 235.5v61h-143z" />
<glyph unicode="&#xa4;" horiz-adv-x="999" d="M70 272l129 125q-47 76 -47 170q0 45 11 87t32 77l-19 19q-10 10 -21.5 21t-21.5 24q-27 29 -63 65l131 131l125 -125q78 49 174 49q94 0 170 -47l125 125l129 -131l-123 -125q47 -76 47 -170q0 -96 -49 -174l125 -125l-131 -131l-127 125q-37 -20 -79 -31.5t-87 -11.5 q-47 0 -90 12.5t-80 34.5l-129 -127zM322 567q0 -76 51 -128t127 -52t129 52t53 128q0 74 -53.5 126t-128.5 52q-76 0 -127 -52t-51 -126z" />
<glyph unicode="&#xa5;" horiz-adv-x="1263" d="M-4 1307h334l215 -316q23 -33 48 -75t46 -80h4q23 39 49.5 82t48.5 73l215 316h308l-310 -457h129v-166h-239l-66 -98v-29h305v-166h-305v-391h-295v391h-307v166h307v18l-69 109h-238v166h127z" />
<glyph unicode="&#xa6;" horiz-adv-x="485" d="M129 371h227v-844h-227v844zM129 614v844h227v-844h-227z" />
<glyph unicode="&#xa7;" horiz-adv-x="970" d="M84 946q0 82 30.5 152.5t87 123t137.5 83t183 30.5q125 0 199 -21.5t127 -51.5l-25 -267q-57 37 -125.5 58.5t-144.5 21.5q-86 0 -125 -32.5t-39 -79.5q0 -16 8.5 -38t24.5 -38l436 -426l-37 -322q35 -47 54.5 -98t19.5 -123q0 -82 -29.5 -152.5t-87 -123t-138.5 -83 t-183 -30.5q-125 0 -198 21.5t-126 54.5l23 264q57 -35 125.5 -57.5t146.5 -22.5q86 0 124 33t38 80q0 16 -6 35.5t-25 39.5l-438 426l37 322q-35 47 -54.5 98t-19.5 123zM276 573l410 -401l16 125l-411 397z" />
<glyph unicode="&#xa8;" d="M141 1159q0 16 15.5 40t37 45.5t44 36.5t38.5 15t39 -15t44.5 -36.5t37 -45.5t15.5 -40t-15.5 -38.5t-37 -44t-44 -37t-39.5 -15.5q-16 0 -38.5 15.5t-44 37t-37 44t-15.5 38.5zM508 1159q0 16 15.5 40t37 45.5t44 36.5t38.5 15t40 -15t45.5 -36.5t36.5 -45.5t15 -40 t-15 -38.5t-36.5 -44t-45.5 -37t-40 -15.5t-38.5 15.5t-44 37t-37 44t-15.5 38.5z" />
<glyph unicode="&#xa9;" horiz-adv-x="1220" d="M61 512q0 121 43 221.5t117 172t174.5 111.5t214.5 40q115 0 215.5 -40t174 -111.5t115.5 -172t42 -221.5q0 -119 -42 -218t-115.5 -172t-174 -113t-215.5 -40t-215 40t-174 113t-117 172t-43 218zM207 512q0 -86 28.5 -162t82 -131t128 -87t164.5 -32q88 0 163 32 t128 87t83 131t30 162q0 88 -30 163t-83 130t-128 87t-163 32q-90 0 -164.5 -32t-128 -87t-82 -130t-28.5 -163zM350 510q0 66 24.5 120t66.5 92t96.5 58.5t115.5 20.5q55 0 97.5 -13.5t70.5 -35.5l-14 -168q-29 20 -63.5 29.5t-73.5 9.5q-49 0 -85 -31t-36 -84t37 -85 t92 -32q35 0 64.5 7.5t70.5 35.5l-18 -180q-25 -16 -62 -25.5t-78 -9.5q-61 0 -116.5 20.5t-97.5 58.5t-66.5 92t-24.5 120z" />
<glyph unicode="&#xaa;" horiz-adv-x="817" d="M63 803q0 94 69 159.5t179 75.5l146 13v22q0 31 -25.5 50.5t-85.5 19.5q-63 0 -122.5 -14.5t-96.5 -36.5l-16 192q41 23 110.5 38t138.5 15q158 0 249 -78.5t91 -224.5v-198q0 -94 91 -107l-89 -176q-115 6 -163 76q-37 -37 -91.5 -56.5t-113.5 -19.5q-57 0 -106.5 16.5 t-86.5 49t-57.5 78.5t-20.5 106zM274 295q0 16 15.5 39.5t37 45t44 37t39.5 15.5q16 0 38.5 -15.5t44 -37t37 -45t15.5 -39.5t-15.5 -39t-37 -44.5t-44 -36.5t-38.5 -15t-39 15t-44.5 36.5t-37 44.5t-15.5 39zM283 793q0 -29 19.5 -49.5t51.5 -20.5q41 0 76 29.5t35 76.5v66 l-98 -8q-43 -6 -63.5 -34t-20.5 -60z" />
<glyph unicode="&#xab;" horiz-adv-x="1007" d="M-16 567q111 76 199.5 172.5t156.5 206.5l149 -149q-31 -63 -76.5 -123t-93.5 -107q47 -47 93.5 -106.5t76.5 -122.5l-149 -150q-68 111 -157 208.5t-199 170.5zM457 567q111 76 201 172.5t157 206.5l150 -149q-31 -63 -76 -123t-92 -107q47 -47 92 -106.5t76 -122.5 l-150 -150q-68 111 -158 208.5t-200 170.5z" />
<glyph unicode="&#xac;" horiz-adv-x="1095" d="M68 451v229h919v-442h-239v213h-680z" />
<glyph unicode="&#xad;" horiz-adv-x="870" d="M84 453v217h702v-217h-702z" />
<glyph unicode="&#xae;" horiz-adv-x="962" d="M61 922q0 90 32 166.5t89.5 132t133 86t165.5 30.5q88 0 165 -30.5t133.5 -86t89 -132t32.5 -166.5t-32.5 -166t-89 -131.5t-133.5 -87t-165 -31.5q-90 0 -165.5 31.5t-133 87t-89.5 131t-32 166.5zM158 922q0 -72 24.5 -131.5t67.5 -102.5t102.5 -66.5t128.5 -23.5 q68 0 127.5 24.5t102.5 67.5t67.5 102.5t24.5 129.5q0 72 -24.5 131t-67.5 102t-102.5 67.5t-127.5 24.5q-70 0 -129 -24.5t-102 -67.5t-67.5 -102.5t-24.5 -130.5zM332 680v485h155q31 0 62 -10t55.5 -30.5t38.5 -48t14 -64.5q0 -41 -20.5 -73t-48.5 -50l110 -154l-96 -59 l-123 184h-37v-180h-110zM442 954h35q27 0 45.5 14.5t18.5 43.5t-18.5 43t-45.5 14h-35v-115z" />
<glyph unicode="&#xaf;" d="M252 1053v178h428v-178h-428z" />
<glyph unicode="&#xb0;" horiz-adv-x="552" d="M45 1112q0 47 18.5 89t50 73t73.5 49t89 18t89.5 -18t74 -49t50 -73t18.5 -89t-18.5 -89t-50 -72.5t-73.5 -49t-90 -18.5q-47 0 -89 18.5t-73.5 49t-50 72.5t-18.5 89zM164 1112q0 -49 31.5 -81t80.5 -32t81 32t32 81t-31.5 81t-81.5 32q-49 0 -80.5 -32t-31.5 -81z" />
<glyph unicode="&#xb1;" horiz-adv-x="1941" d="M23 682v246h143v47q0 104 29.5 190t87 147.5t140.5 95.5t187 34q63 0 106.5 -9.5t78.5 -25.5l-25 -250q-23 12 -60.5 22.5t-84.5 10.5q-72 0 -118 -54.5t-46 -131.5v-76h362v24q0 121 38 218.5t110.5 165t177 103.5t237.5 36q109 0 214.5 -33t177.5 -90v-1028 q0 -66 34.5 -102t81.5 -46l-114 -213q-53 2 -106.5 24.5t-96.5 64.5t-69.5 103.5t-26.5 143.5v901q-47 27 -144 27q-98 0 -157.5 -66.5t-59.5 -175.5v-57h185l-21 -246h-164v-682h-297v682h-362v-682h-295v682h-143z" />
<glyph unicode="&#xb2;" horiz-adv-x="722" d="M39 502v55q76 63 141.5 130t112.5 130.5t74.5 117.5t27.5 93q0 57 -35.5 91t-99.5 34q-47 0 -91 -12.5t-81 -32.5l-18 172q43 20 99 33.5t116 13.5q152 0 239.5 -76.5t87.5 -218.5q0 -86 -61.5 -184t-151.5 -180h250v-166h-610z" />
<glyph unicode="&#xb3;" horiz-adv-x="616" d="M59 692q37 -23 76 -30t82 -7q49 0 90 29t41 80q0 41 -29.5 66.5t-78.5 25.5q-8 0 -21.5 -1t-28.5 -5l-14 154q45 10 76 35.5t31 54.5q0 27 -20.5 43t-55.5 16q-29 0 -59.5 -7t-57.5 -24l-18 174q35 16 74.5 23.5t93.5 7.5q111 0 183.5 -54t72.5 -147q0 -51 -26 -91 t-64 -60q27 -6 55 -24.5t51 -45t37 -60.5t14 -73q0 -70 -24.5 -123t-68.5 -89t-105.5 -54.5t-133.5 -18.5q-37 0 -82 8.5t-71 22.5z" />
<glyph unicode="&#xb4;" d="M180 1155q55 14 115.5 38t121 54.5t118 69.5t104.5 84l49 -215q-96 -66 -182 -100.5t-193 -61.5z" />
<glyph unicode="&#xb5;" horiz-adv-x="1126" d="M80 0v928h967v-928h-967zM139 59h387q-51 23 -78.5 57t-44.5 68l-264 555v-680zM201 786l493 -348q-90 -35 -138 -95t-48 -114q0 -66 29.5 -104.5t76.5 -65.5h373v727h-786z" />
<glyph unicode="&#xb6;" horiz-adv-x="1030" d="M63 905q0 96 37 172t99.5 129.5t142.5 82t166 28.5h475v-250h-158v-1122q0 -90 -26.5 -165t-73.5 -130.5t-110.5 -90t-137.5 -46.5l-129 204q88 16 132 77t44 171v533h-16q-86 0 -166 27.5t-142.5 80.5t-99.5 128t-37 171z" />
<glyph unicode="&#xb7;" horiz-adv-x="450" d="M55 555q0 20 18.5 49t45 55.5t56.5 45t50 18.5t50 -18.5t56.5 -45t45 -55.5t18.5 -49t-18.5 -50t-45 -56.5t-56 -45t-50.5 -18.5q-20 0 -50 18.5t-56.5 45t-45 56.5t-18.5 50z" />
<glyph unicode="&#xb8;" d="M227 -442l21 133q35 -25 66.5 -33t66.5 -8q37 0 60.5 22.5t23.5 57.5q0 37 -25.5 58.5t-66.5 21.5q-16 0 -32.5 -1.5t-39.5 -5.5l31 197h102l-6 -55q37 -2 72 -18.5t62.5 -44t45 -66.5t17.5 -84q0 -55 -20.5 -96.5t-54.5 -69t-76 -40.5t-87 -13q-53 0 -89 11t-71 34z" />
<glyph unicode="&#xb9;" horiz-adv-x="505" d="M45 1124l21 174l321 29v-825h-205v635z" />
<glyph unicode="&#xba;" horiz-adv-x="931" d="M63 946q0 86 32 158t86.5 124t128 80.5t157.5 28.5t157.5 -28.5t128 -80.5t86 -124t31.5 -158q0 -88 -31.5 -159.5t-86 -124t-128 -81t-157.5 -28.5t-157.5 28.5t-128 81t-86.5 124t-32 159.5zM315 946q0 -76 45.5 -125t106.5 -49q63 0 107 49t44 125q0 74 -44 122 t-107 48q-61 0 -106.5 -48t-45.5 -122zM334 295q0 16 14 39.5t36 45t43.5 37t37.5 15.5t39.5 -15.5t45 -37t37 -45t15.5 -39.5t-15.5 -39t-37 -44.5t-45 -36.5t-39.5 -15t-37.5 15t-43.5 36.5t-36 44.5t-14 39z" />
<glyph unicode="&#xbb;" horiz-adv-x="1007" d="M43 338q31 63 76 122.5t94 106.5q-49 47 -94 106.5t-76 123.5l150 149q68 -111 157.5 -207t200.5 -172q-111 -74 -201 -171t-157 -208zM518 338q31 63 76 122.5t92 106.5q-47 47 -92 106.5t-76 123.5l150 149q68 -111 156.5 -207t199.5 -172q-111 -74 -200 -171 t-156 -208z" />
<glyph unicode="&#xbc;" horiz-adv-x="1497" d="M45 1124l21 174l321 29v-825h-205v635zM141 66l1030 1269l111 -92l-1028 -1272zM774 362l365 451h196v-446h97v-152h-97v-215h-194v215h-338zM967 367h174v157q0 43 8 78l-6 2q-20 -45 -53 -84z" />
<glyph unicode="&#xbd;" horiz-adv-x="1622" d="M45 1124l21 174l321 29v-825h-205v635zM141 66l1030 1269l111 -92l-1028 -1272zM958 0v55q76 63 140.5 130t113 130.5t76 117.5t27.5 93q0 57 -36 91t-99 34q-47 0 -91.5 -12t-80.5 -33l-19 172q43 23 99.5 36t115.5 13q152 0 239 -77.5t87 -219.5q0 -86 -60.5 -184 t-152.5 -180h252v-166h-611z" />
<glyph unicode="&#xbe;" horiz-adv-x="1554" d="M59 692q37 -23 76 -30t82 -7q49 0 90 29t41 80q0 41 -29.5 66.5t-78.5 25.5q-8 0 -21.5 -1t-28.5 -5l-14 154q45 10 76 35.5t31 54.5q0 27 -20.5 43t-55.5 16q-29 0 -59.5 -7t-57.5 -24l-18 174q35 16 74.5 23.5t93.5 7.5q111 0 183.5 -54t72.5 -147q0 -51 -26 -91 t-64 -60q27 -6 55 -24.5t51 -45t37 -60.5t14 -73q0 -70 -24.5 -123t-68.5 -89t-105.5 -54.5t-133.5 -18.5q-37 0 -82 8.5t-71 22.5zM211 66l1030 1269l111 -92l-1028 -1272zM844 362l364 451h197v-446h96v-152h-96v-215h-195v215h-338zM1038 367h172v157q0 20 2 39t7 39 l-5 2q-25 -45 -53 -84z" />
<glyph unicode="&#xbf;" horiz-adv-x="831" d="M72 262q0 102 46 187.5t142 189.5q47 53 66.5 103.5t19.5 97.5v43t-4 32l246 -51q6 -23 10 -47t4 -53q0 -80 -30.5 -153.5t-102.5 -155.5q-43 -49 -68.5 -92.5t-25.5 -100.5q0 -47 37 -86t106 -39q72 0 132.5 29t111.5 70l24 -261q-53 -43 -128.5 -68.5t-161.5 -25.5 q-98 0 -176 28t-133.5 78t-85 120.5t-29.5 154.5zM287 1167q0 20 18.5 50t46 56.5t56 46t51.5 19.5q20 0 50 -19.5t56.5 -46t45 -56.5t18.5 -50t-18.5 -48.5t-45 -55.5t-56.5 -45.5t-50 -18.5q-23 0 -51.5 18.5t-56 45.5t-46 55.5t-18.5 48.5z" />
<glyph unicode="&#xc0;" horiz-adv-x="1288" d="M20 0l515 1317h219l514 -1317h-316l-102 272h-430l-101 -272h-299zM319 1596l52 215q47 -45 104 -84t117.5 -69.5t121 -54.5t115.5 -38l-133 -131q-53 14 -101 28.5t-93 33t-89.5 43t-93.5 57.5zM498 512h274l-94 262q-10 29 -20.5 63.5t-20.5 69.5h-4 q-8 -35 -19.5 -69.5t-21.5 -63.5z" />
<glyph unicode="&#xc1;" horiz-adv-x="1288" d="M20 0l515 1317h219l514 -1317h-316l-102 272h-430l-101 -272h-299zM456 1565q55 14 115.5 38t121 54.5t118 69.5t104.5 84l49 -215q-96 -66 -182 -100.5t-193 -61.5zM498 512h274l-94 262q-10 29 -20.5 63.5t-20.5 69.5h-4q-8 -35 -19.5 -69.5t-21.5 -63.5z" />
<glyph unicode="&#xc2;" horiz-adv-x="1288" d="M20 0l515 1317h219l514 -1317h-316l-102 272h-430l-101 -272h-299zM336 1559q82 37 162.5 105.5t142.5 160.5q61 -92 142 -160.5t163 -105.5l-127 -125q-49 23 -92 50.5t-86 72.5q-43 -45 -86 -72.5t-92 -50.5zM498 512h274l-94 262q-10 29 -20.5 63.5t-20.5 69.5h-4 q-8 -35 -19.5 -69.5t-21.5 -63.5z" />
<glyph unicode="&#xc3;" horiz-adv-x="1288" d="M20 0l515 1317h219l514 -1317h-316l-102 272h-430l-101 -272h-299zM316 1471l51 203q80 47 151.5 74.5t168.5 35.5l22 -141q68 10 137.5 37.5t134.5 66.5l-49 -200q-80 -53 -151.5 -79t-167.5 -34l-25 139q-66 -10 -136.5 -35.5t-135.5 -66.5zM498 512h274l-94 262 q-10 29 -20.5 63.5t-20.5 69.5h-4q-8 -35 -19.5 -69.5t-21.5 -63.5z" />
<glyph unicode="&#xc4;" horiz-adv-x="1288" d="M20 0l515 1317h219l514 -1317h-316l-102 272h-430l-101 -272h-299zM327 1569q0 16 15.5 40t37 45.5t44 36.5t38.5 15t39 -15t44.5 -36.5t37 -45.5t15.5 -40t-15.5 -38.5t-37 -44t-44 -37t-39.5 -15.5q-16 0 -38.5 15.5t-44 37t-37 44t-15.5 38.5zM498 512h274l-94 262 q-10 29 -20.5 63.5t-20.5 69.5h-4q-8 -35 -19.5 -69.5t-21.5 -63.5zM694 1569q0 16 15.5 40t37 45.5t44 36.5t38.5 15t40 -15t45.5 -36.5t36.5 -45.5t15 -40t-15 -38.5t-36.5 -44t-45.5 -37t-40 -15.5t-38.5 15.5t-44 37t-37 44t-15.5 38.5z" />
<glyph unicode="&#xc5;" horiz-adv-x="1288" d="M20 0l515 1317h219l514 -1317h-316l-102 272h-430l-101 -272h-299zM387 1657q0 53 20.5 99.5t55 81t82 54t100.5 19.5q51 0 98 -19.5t82 -54t55.5 -81t20.5 -99.5t-20.5 -99t-55.5 -80t-82 -54.5t-98 -20.5q-53 0 -100.5 20.5t-82 54.5t-55 80t-20.5 99zM498 512h274 l-94 262q-10 29 -20.5 63.5t-20.5 69.5h-4q-8 -35 -19.5 -69.5t-21.5 -63.5zM520 1657q0 -53 35 -89t90 -36q53 0 89 36t36 89q0 55 -36 90t-89 35q-55 0 -90 -34.5t-35 -90.5z" />
<glyph unicode="&#xc6;" horiz-adv-x="1699" d="M10 0l758 1307h834v-260h-447v-261h365v-264h-365v-262h502v-260h-795v272h-383l-155 -272h-314zM602 516h260v348q0 47 2 87t4 87h-4q-16 -47 -36.5 -92t-43.5 -86z" />
<glyph unicode="&#xc7;" horiz-adv-x="1214" d="M72 653q0 168 63.5 296t164.5 214t228 130t256 44q123 0 217.5 -22.5t153.5 -57.5l-22 -276q-51 33 -128 57.5t-184 24.5q-90 0 -168 -28.5t-135 -83t-91 -130.5t-34 -168t34 -166.5t92.5 -129t139 -83t172.5 -28.5q106 0 187.5 21.5t134.5 56.5l-27 -285 q-53 -33 -137 -50.5t-201 -19.5l-4 -24q37 -2 73 -18.5t63.5 -44t45 -66.5t17.5 -84q0 -55 -20.5 -96.5t-54.5 -69t-75.5 -40.5t-87.5 -13q-53 0 -90 11t-69 34l20 133q35 -25 65.5 -33t65.5 -8q39 0 61.5 22.5t22.5 57.5q0 37 -25.5 58.5t-66.5 21.5q-16 0 -31.5 -1.5 t-38.5 -5.5l27 172q-117 14 -227.5 65.5t-196.5 136.5t-138 204t-52 272z" />
<glyph unicode="&#xc8;" horiz-adv-x="972" d="M113 0v1307h761v-260h-444v-261h363v-264h-363v-262h502v-260h-819zM184 1596l52 215q47 -45 104 -84t117.5 -69.5t121 -54.5t115.5 -38l-133 -131q-53 14 -101 28.5t-93 33t-89.5 43t-93.5 57.5z" />
<glyph unicode="&#xc9;" horiz-adv-x="972" d="M113 0v1307h761v-260h-444v-261h363v-264h-363v-262h502v-260h-819zM321 1565q55 14 115.5 38t121 54.5t118 69.5t104.5 84l49 -215q-96 -66 -182 -100.5t-193 -61.5z" />
<glyph unicode="&#xca;" horiz-adv-x="972" d="M113 0v1307h761v-260h-444v-261h363v-264h-363v-262h502v-260h-819zM213 1559q82 37 162.5 105.5t142.5 160.5q61 -92 142 -160.5t163 -105.5l-127 -125q-49 23 -92 50.5t-86 72.5q-43 -45 -86 -72.5t-92 -50.5z" />
<glyph unicode="&#xcb;" horiz-adv-x="972" d="M113 0v1307h761v-260h-444v-261h363v-264h-363v-262h502v-260h-819zM192 1569q0 16 15.5 40t37 45.5t44 36.5t38.5 15t39 -15t44.5 -36.5t37 -45.5t15.5 -40t-15.5 -38.5t-37 -44t-44 -37t-39.5 -15.5q-16 0 -38.5 15.5t-44 37t-37 44t-15.5 38.5zM559 1569q0 16 15.5 40 t37 45.5t44 36.5t38.5 15t40 -15t45.5 -36.5t36.5 -45.5t15 -40t-15 -38.5t-36.5 -44t-45.5 -37t-40 -15.5t-38.5 15.5t-44 37t-37 44t-15.5 38.5z" />
<glyph unicode="&#xcc;" horiz-adv-x="583" d="M2 1596l52 215q47 -45 104 -84t117.5 -69.5t121 -54.5t115.5 -38l-133 -131q-53 14 -101 28.5t-93 33t-89.5 43t-93.5 57.5zM133 0v1307h318v-1307h-318z" />
<glyph unicode="&#xcd;" horiz-adv-x="583" d="M76 1565q55 14 115.5 38t121 54.5t118 69.5t104.5 84l49 -215q-96 -66 -182 -100.5t-193 -61.5zM133 0v1307h318v-1307h-318z" />
<glyph unicode="&#xce;" horiz-adv-x="583" d="M-12 1559q82 37 162.5 105.5t142.5 160.5q61 -92 142 -160.5t163 -105.5l-127 -125q-49 23 -92 50.5t-86 72.5q-43 -45 -86 -72.5t-92 -50.5zM133 0v1307h318v-1307h-318z" />
<glyph unicode="&#xcf;" horiz-adv-x="583" d="M-25 1569q0 16 15.5 40t37 45.5t44 36.5t38.5 15t39 -15t44.5 -36.5t37 -45.5t15.5 -40t-15.5 -38.5t-37 -44t-44 -37t-39.5 -15.5q-16 0 -38.5 15.5t-44 37t-37 44t-15.5 38.5zM133 0v1307h318v-1307h-318zM342 1569q0 16 15.5 40t37 45.5t44 36.5t38.5 15t40 -15 t45.5 -36.5t36.5 -45.5t15 -40t-15 -38.5t-36.5 -44t-45.5 -37t-40 -15.5t-38.5 15.5t-44 37t-37 44t-15.5 38.5z" />
<glyph unicode="&#xd0;" horiz-adv-x="1368" d="M4 545v223h152v539h440q141 0 268 -45t223.5 -129t152.5 -205t56 -275t-56 -274.5t-152.5 -204.5t-223.5 -129t-268 -45h-440v545h-152zM461 272h98q86 0 162 23.5t133 72t91 119t34 166.5q0 94 -34 166t-91 120t-133 71.5t-162 23.5h-98v-266h207l-35 -223h-172v-273z " />
<glyph unicode="&#xd1;" horiz-adv-x="1452" d="M113 0v1307h256l442 -488q47 -51 107.5 -121.5t105.5 -128.5l4 2q-6 117 -6 244v492h317v-1321h-159l-508 557q-61 68 -126 144.5t-118 141.5l-4 -2q4 -70 5 -141.5t1 -132.5v-553h-317zM385 1471l51 203q80 47 151.5 74.5t168.5 35.5l22 -141q68 10 137.5 37.5 t134.5 66.5l-49 -200q-80 -53 -151.5 -79t-167.5 -34l-25 139q-66 -10 -136.5 -35.5t-135.5 -66.5z" />
<glyph unicode="&#xd2;" horiz-adv-x="1550" d="M72 655q0 156 59 283t156.5 215t224.5 136t262 48t262 -48t225.5 -136t158 -215t59.5 -283q0 -158 -59.5 -284.5t-158 -215.5t-225.5 -137.5t-262 -48.5t-262 48.5t-224.5 137.5t-156.5 216t-59 284zM393 655q0 -92 32 -166.5t85 -128t121.5 -82t142.5 -28.5t142.5 28.5 t123 82t86 128t31.5 166.5t-31.5 166t-86 127t-123 82t-142.5 29t-142.5 -29t-121.5 -82t-85 -126.5t-32 -166.5zM438 1596l52 215q47 -45 104 -84t117.5 -69.5t121 -54.5t115.5 -38l-133 -131q-53 14 -101 28.5t-93 33t-89.5 43t-93.5 57.5z" />
<glyph unicode="&#xd3;" horiz-adv-x="1550" d="M72 655q0 156 59 283t156.5 215t224.5 136t262 48t262 -48t225.5 -136t158 -215t59.5 -283q0 -158 -59.5 -284.5t-158 -215.5t-225.5 -137.5t-262 -48.5t-262 48.5t-224.5 137.5t-156.5 216t-59 284zM393 655q0 -92 32 -166.5t85 -128t121.5 -82t142.5 -28.5t142.5 28.5 t123 82t86 128t31.5 166.5t-31.5 166t-86 127t-123 82t-142.5 29t-142.5 -29t-121.5 -82t-85 -126.5t-32 -166.5zM579 1565q55 14 115.5 38t121 54.5t118 69.5t104.5 84l49 -215q-96 -66 -182 -100.5t-193 -61.5z" />
<glyph unicode="&#xd4;" horiz-adv-x="1550" d="M72 655q0 156 59 283t156.5 215t224.5 136t262 48t262 -48t225.5 -136t158 -215t59.5 -283q0 -158 -59.5 -284.5t-158 -215.5t-225.5 -137.5t-262 -48.5t-262 48.5t-224.5 137.5t-156.5 216t-59 284zM393 655q0 -92 32 -166.5t85 -128t121.5 -82t142.5 -28.5t142.5 28.5 t123 82t86 128t31.5 166.5t-31.5 166t-86 127t-123 82t-142.5 29t-142.5 -29t-121.5 -82t-85 -126.5t-32 -166.5zM474 1559q82 37 162.5 105.5t142.5 160.5q61 -92 142 -160.5t163 -105.5l-127 -125q-49 23 -92 50.5t-86 72.5q-43 -45 -86 -72.5t-92 -50.5z" />
<glyph unicode="&#xd5;" horiz-adv-x="1550" d="M72 655q0 156 59 283t156.5 215t224.5 136t262 48t262 -48t225.5 -136t158 -215t59.5 -283q0 -158 -59.5 -284.5t-158 -215.5t-225.5 -137.5t-262 -48.5t-262 48.5t-224.5 137.5t-156.5 216t-59 284zM393 655q0 -92 32 -166.5t85 -128t121.5 -82t142.5 -28.5t142.5 28.5 t123 82t86 128t31.5 166.5t-31.5 166t-86 127t-123 82t-142.5 29t-142.5 -29t-121.5 -82t-85 -126.5t-32 -166.5zM424 1471l51 203q80 47 151.5 74.5t168.5 35.5l22 -141q68 10 137.5 37.5t134.5 66.5l-49 -200q-80 -53 -151.5 -79t-167.5 -34l-25 139q-66 -10 -136.5 -35.5 t-135.5 -66.5z" />
<glyph unicode="&#xd6;" horiz-adv-x="1550" d="M72 655q0 156 59 283t156.5 215t224.5 136t262 48t262 -48t225.5 -136t158 -215t59.5 -283q0 -158 -59.5 -284.5t-158 -215.5t-225.5 -137.5t-262 -48.5t-262 48.5t-224.5 137.5t-156.5 216t-59 284zM393 655q0 -92 32 -166.5t85 -128t121.5 -82t142.5 -28.5t142.5 28.5 t123 82t86 128t31.5 166.5t-31.5 166t-86 127t-123 82t-142.5 29t-142.5 -29t-121.5 -82t-85 -126.5t-32 -166.5zM456 1569q0 16 15.5 40t37 45.5t44 36.5t38.5 15t39 -15t44.5 -36.5t37 -45.5t15.5 -40t-15.5 -38.5t-37 -44t-44 -37t-39.5 -15.5q-16 0 -38.5 15.5t-44 37 t-37 44t-15.5 38.5zM823 1569q0 16 15.5 40t37 45.5t44 36.5t38.5 15t40 -15t45.5 -36.5t36.5 -45.5t15 -40t-15 -38.5t-36.5 -44t-45.5 -37t-40 -15.5t-38.5 15.5t-44 37t-37 44t-15.5 38.5z" />
<glyph unicode="&#xd7;" horiz-adv-x="899" d="M90 354l205 205l-205 207l156 156l205 -207l206 205l154 -154l-205 -205l207 -207l-156 -155l-206 204l-205 -204z" />
<glyph unicode="&#xd8;" horiz-adv-x="1550" d="M72 655q0 156 59 283t156.5 215t224.5 136t262 48q203 0 373 -100l110 135l119 -98l-104 -129q94 -90 150.5 -213t56.5 -277q0 -158 -59.5 -284.5t-158 -215.5t-225.5 -137.5t-262 -48.5q-201 0 -371 101l-108 -136l-121 101l105 127q-94 90 -150.5 215t-56.5 278z M369 655q0 -80 24.5 -147.5t67.5 -120.5l512 633q-92 51 -199 51q-80 0 -152.5 -29.5t-129 -84t-90 -131t-33.5 -171.5zM582 289q43 -23 92 -36t100 -13q80 0 152.5 29.5t130 84t91.5 131t34 170.5q0 78 -24.5 144.5t-65.5 120.5z" />
<glyph unicode="&#xd9;" horiz-adv-x="1357" d="M113 446v861h317v-832q0 -100 68.5 -162.5t183.5 -62.5t184.5 62.5t69.5 162.5v832h309v-861q0 -109 -45 -196.5t-122 -149t-180 -95.5t-220 -34t-220.5 34t-180 95.5t-120.5 149.5t-44 196zM331 1596l52 215q47 -45 104 -84t117.5 -69.5t121 -54.5t115.5 -38l-133 -131 q-53 14 -101 28.5t-93 33t-89.5 43t-93.5 57.5z" />
<glyph unicode="&#xda;" horiz-adv-x="1357" d="M113 446v861h317v-832q0 -100 68.5 -162.5t183.5 -62.5t184.5 62.5t69.5 162.5v832h309v-861q0 -109 -45 -196.5t-122 -149t-180 -95.5t-220 -34t-220.5 34t-180 95.5t-120.5 149.5t-44 196zM520 1565q55 14 115.5 38t121 54.5t118 69.5t104.5 84l49 -215 q-96 -66 -182 -100.5t-193 -61.5z" />
<glyph unicode="&#xdb;" horiz-adv-x="1357" d="M113 446v861h317v-832q0 -100 68.5 -162.5t183.5 -62.5t184.5 62.5t69.5 162.5v832h309v-861q0 -109 -45 -196.5t-122 -149t-180 -95.5t-220 -34t-220.5 34t-180 95.5t-120.5 149.5t-44 196zM375 1559q82 37 162.5 105.5t142.5 160.5q61 -92 142 -160.5t163 -105.5 l-127 -125q-49 23 -92 50.5t-86 72.5q-43 -45 -86 -72.5t-92 -50.5z" />
<glyph unicode="&#xdc;" horiz-adv-x="1357" d="M113 446v861h317v-832q0 -100 68.5 -162.5t183.5 -62.5t184.5 62.5t69.5 162.5v832h309v-861q0 -109 -45 -196.5t-122 -149t-180 -95.5t-220 -34t-220.5 34t-180 95.5t-120.5 149.5t-44 196zM364 1569q0 16 15.5 40t37 45.5t44 36.5t38.5 15t39 -15t44.5 -36.5t37 -45.5 t15.5 -40t-15.5 -38.5t-37 -44t-44 -37t-39.5 -15.5q-16 0 -38.5 15.5t-44 37t-37 44t-15.5 38.5zM731 1569q0 16 15.5 40t37 45.5t44 36.5t38.5 15t40 -15t45.5 -36.5t36.5 -45.5t15 -40t-15 -38.5t-36.5 -44t-45.5 -37t-40 -15.5t-38.5 15.5t-44 37t-37 44t-15.5 38.5z " />
<glyph unicode="&#xdd;" horiz-adv-x="1275" d="M-4 1307h338l215 -316q23 -35 48.5 -76t45.5 -79h4q23 39 49.5 80.5t48.5 74.5l216 316h315l-485 -723v-584h-308v578zM461 1565q55 14 115.5 38t121 54.5t118 69.5t104.5 84l49 -215q-96 -66 -182 -100.5t-193 -61.5z" />
<glyph unicode="&#xde;" horiz-adv-x="1046" d="M113 0v1307h305v-152h174q84 0 160.5 -27.5t135 -78t92.5 -124t34 -165.5t-34 -166t-92.5 -125t-135 -79t-160.5 -28h-174v-362h-305zM418 612h129q61 0 112.5 35t51.5 113q0 74 -51.5 109.5t-112.5 35.5h-129v-293z" />
<glyph unicode="&#xdf;" horiz-adv-x="1208" d="M113 0v946q0 248 120.5 388.5t348.5 140.5q111 0 195.5 -35t143 -96.5t88 -143.5t29.5 -176q0 -78 -11 -141.5t-28 -108.5q-102 0 -169.5 -29.5t-67.5 -76.5q0 -29 24.5 -47.5t85.5 -38.5q135 -43 206 -121t71 -193q0 -59 -21.5 -113.5t-66.5 -95.5t-114.5 -64.5 t-164.5 -23.5q-96 0 -171.5 21.5t-116.5 50.5v244q47 -35 116.5 -62.5t159.5 -27.5q45 0 70.5 19.5t25.5 47.5q0 35 -25.5 53.5t-80.5 38.5q-129 45 -202 121t-73 187q0 61 21.5 110t57.5 85t80 56.5t89 26.5q14 43 15 100q0 35 -12.5 68t-34 59.5t-53.5 42t-68 15.5 q-86 0 -132.5 -66.5t-46.5 -173.5v-987h-288z" />
<glyph unicode="&#xe0;" horiz-adv-x="991" d="M59 276q0 129 89.5 208t226.5 94l184 18v33q0 43 -33.5 69.5t-111.5 26.5q-80 0 -154 -18.5t-119 -44.5l-22 229q53 29 139 47t172 18q195 0 307.5 -96t112.5 -276v-267q0 -61 28.5 -95t77.5 -42l-104 -209q-139 10 -197 105q-47 -53 -115.5 -79t-144.5 -26 q-72 0 -132 20.5t-106 60.5t-72 96.5t-26 127.5zM152 1196l43 182q80 -78 188.5 -130t200.5 -79l-113 -110q-92 23 -165 51.5t-154 85.5zM322 272q0 -37 27.5 -63.5t70.5 -26.5q55 0 101 39t46 98v87l-125 -13q-66 -6 -93 -42t-27 -79z" />
<glyph unicode="&#xe1;" horiz-adv-x="991" d="M59 276q0 129 89.5 208t226.5 94l184 18v33q0 43 -33.5 69.5t-111.5 26.5q-80 0 -154 -18.5t-119 -44.5l-22 229q53 29 139 47t172 18q195 0 307.5 -96t112.5 -276v-267q0 -61 28.5 -95t77.5 -42l-104 -209q-139 10 -197 105q-47 -53 -115.5 -79t-144.5 -26 q-72 0 -132 20.5t-106 60.5t-72 96.5t-26 127.5zM256 1169q92 27 200.5 79t188.5 130l43 -182q-82 -57 -154.5 -86t-164.5 -51zM322 272q0 -37 27.5 -63.5t70.5 -26.5q55 0 101 39t46 98v87l-125 -13q-66 -6 -93 -42t-27 -79z" />
<glyph unicode="&#xe2;" horiz-adv-x="991" d="M59 276q0 129 89.5 208t226.5 94l184 18v33q0 43 -33.5 69.5t-111.5 26.5q-80 0 -154 -18.5t-119 -44.5l-22 229q53 29 139 47t172 18q195 0 307.5 -96t112.5 -276v-267q0 -61 28.5 -95t77.5 -42l-104 -209q-139 10 -197 105q-47 -53 -115.5 -79t-144.5 -26 q-72 0 -132 20.5t-106 60.5t-72 96.5t-26 127.5zM195 1165q70 31 138 89.5t122 136.5q53 -78 120.5 -136.5t137.5 -89.5l-109 -106q-41 20 -78 42.5t-71 61.5q-37 -39 -74 -61.5t-78 -42.5zM322 272q0 -37 27.5 -63.5t70.5 -26.5q55 0 101 39t46 98v87l-125 -13 q-66 -6 -93 -42t-27 -79z" />
<glyph unicode="&#xe3;" horiz-adv-x="991" d="M59 276q0 129 89.5 208t226.5 94l184 18v33q0 43 -33.5 69.5t-111.5 26.5q-80 0 -154 -18.5t-119 -44.5l-22 229q53 29 139 47t172 18q195 0 307.5 -96t112.5 -276v-267q0 -61 28.5 -95t77.5 -42l-104 -209q-139 10 -197 105q-47 -53 -115.5 -79t-144.5 -26 q-72 0 -132 20.5t-106 60.5t-72 96.5t-26 127.5zM193 1090l43 172q68 41 129 64.5t143 29.5l18 -119q59 10 119 32.5t113 55.5l-41 -170q-68 -45 -129.5 -67.5t-143.5 -28.5l-20 119q-55 -8 -114.5 -31t-116.5 -57zM322 272q0 -37 27.5 -63.5t70.5 -26.5q55 0 101 39t46 98 v87l-125 -13q-66 -6 -93 -42t-27 -79z" />
<glyph unicode="&#xe4;" horiz-adv-x="991" d="M59 276q0 129 89.5 208t226.5 94l184 18v33q0 43 -33.5 69.5t-111.5 26.5q-80 0 -154 -18.5t-119 -44.5l-22 229q53 29 139 47t172 18q195 0 307.5 -96t112.5 -276v-267q0 -61 28.5 -95t77.5 -42l-104 -209q-139 10 -197 105q-47 -53 -115.5 -79t-144.5 -26 q-72 0 -132 20.5t-106 60.5t-72 96.5t-26 127.5zM186 1174q0 14 12.5 33.5t31 38t38 31.5t33.5 13t33.5 -13t38 -31.5t31 -38t12.5 -33.5q0 -12 -12.5 -32t-31 -38.5t-38 -31.5t-33.5 -13t-33.5 13t-38 31.5t-31 38t-12.5 32.5zM322 272q0 -37 27.5 -63.5t70.5 -26.5 q55 0 101 39t46 98v87l-125 -13q-66 -6 -93 -42t-27 -79zM498 1174q0 14 13 33.5t31.5 38t38 31.5t31.5 13q14 0 35 -13t39.5 -31.5t30.5 -38t12 -33.5q0 -12 -12 -32t-30.5 -38.5t-39 -31.5t-35.5 -13q-12 0 -31.5 13t-38 31.5t-31.5 38t-13 32.5z" />
<glyph unicode="&#xe5;" horiz-adv-x="991" d="M59 276q0 129 89.5 208t226.5 94l184 18v33q0 43 -33.5 69.5t-111.5 26.5q-80 0 -154 -18.5t-119 -44.5l-22 229q53 29 139 47t172 18q195 0 307.5 -96t112.5 -276v-267q0 -61 28.5 -95t77.5 -42l-104 -209q-139 10 -197 105q-47 -53 -115.5 -79t-144.5 -26 q-72 0 -132 20.5t-106 60.5t-72 96.5t-26 127.5zM229 1249q0 45 17.5 84t47.5 68t69.5 46t85.5 17q45 0 83.5 -17t68.5 -46t47.5 -68t17.5 -84t-17.5 -84t-47.5 -68.5t-68.5 -47t-83.5 -17.5t-85 17.5t-70 47t-47.5 68.5t-17.5 84zM322 272q0 -37 27.5 -63.5t70.5 -26.5 q55 0 101 39t46 98v87l-125 -13q-66 -6 -93 -42t-27 -79zM342 1249q0 -47 29.5 -76.5t77.5 -29.5q47 0 76.5 29.5t29.5 76.5t-29.5 76t-76.5 29t-77 -29t-30 -76z" />
<glyph unicode="&#xe6;" horiz-adv-x="1525" d="M59 272q0 131 88.5 208t229.5 91l182 19v37q0 43 -33.5 70.5t-111.5 27.5q-80 0 -154 -18.5t-119 -44.5l-22 229q53 29 139 47t172 18q98 0 178 -27.5t133 -80.5q63 53 143.5 80.5t166.5 27.5q96 0 172.5 -30.5t130 -81.5t82 -117.5t28.5 -138.5q0 -23 -2 -47.5t-6 -44.5 l-121 -119h-463q8 -31 29 -61.5t54.5 -55t81.5 -40t112 -15.5q78 0 141.5 16.5t122.5 50.5l-27 -247q-49 -23 -116.5 -38.5t-159.5 -15.5q-113 0 -211 34t-172 99q-61 -72 -147 -102.5t-179 -30.5q-72 0 -134 20.5t-108 59.5t-73 94.5t-27 126.5zM322 268q0 -37 27.5 -61.5 t70.5 -24.5q55 0 101 39t46 98v78l-123 -10q-66 -6 -94 -39t-28 -80zM862 569h328q2 7 2 21q0 55 -38 97t-103 42q-68 0 -120 -44t-69 -116z" />
<glyph unicode="&#xe7;" horiz-adv-x="937" d="M61 463q0 115 42 207t113 155.5t164 97t193 33.5q92 0 166 -17t129 -48l-24 -260q-100 59 -230 59q-104 0 -176.5 -60.5t-72.5 -166.5q0 -53 21.5 -95t57 -72t83.5 -46.5t102 -16.5q61 0 115.5 13.5t113.5 44.5l-24 -268q-47 -27 -117 -39.5t-135 -12.5l-2 -22 q31 -2 61.5 -15.5t54 -38t38 -57.5t14.5 -71q0 -47 -17.5 -81t-46.5 -57.5t-64.5 -35t-74.5 -11.5q-47 0 -77 9.5t-58 27.5l18 113q29 -23 54.5 -29t58.5 -6q31 0 50 19.5t19 47.5q0 31 -21.5 49.5t-56.5 18.5h-28.5t-32.5 -4l25 149q-90 12 -169 52.5t-137.5 102t-93.5 145 t-35 186.5z" />
<glyph unicode="&#xe8;" horiz-adv-x="1017" d="M59 469q0 113 39 203t105.5 153.5t153.5 97t186 33.5q96 0 173 -30.5t131 -81.5t82.5 -117.5t28.5 -138.5q0 -47 -10 -92l-121 -119h-462q8 -31 28.5 -62.5t54 -56.5t80.5 -41t109 -16q80 0 144.5 18.5t123.5 52.5l-26 -247q-47 -23 -116 -38.5t-161 -15.5 q-115 0 -213 35t-172 100.5t-116 156.5t-42 206zM268 1196l43 182q82 -78 189.5 -130t201.5 -79l-114 -110q-92 23 -165 51.5t-155 85.5zM354 569h328q2 7 2 21q0 55 -38 97t-103 42q-68 0 -120 -44t-69 -116z" />
<glyph unicode="&#xe9;" horiz-adv-x="1017" d="M59 469q0 113 39 203t105.5 153.5t153.5 97t186 33.5q96 0 173 -30.5t131 -81.5t82.5 -117.5t28.5 -138.5q0 -47 -10 -92l-121 -119h-462q8 -31 28.5 -62.5t54 -56.5t80.5 -41t109 -16q80 0 144.5 18.5t123.5 52.5l-26 -247q-47 -23 -116 -38.5t-161 -15.5 q-115 0 -213 35t-172 100.5t-116 156.5t-42 206zM354 569h328q2 7 2 21q0 55 -38 97t-103 42q-68 0 -120 -44t-69 -116zM379 1169q94 27 201.5 79t189.5 130l41 -182q-82 -57 -154.5 -86t-162.5 -51z" />
<glyph unicode="&#xea;" horiz-adv-x="1017" d="M59 469q0 113 39 203t105.5 153.5t153.5 97t186 33.5q96 0 173 -30.5t131 -81.5t82.5 -117.5t28.5 -138.5q0 -47 -10 -92l-121 -119h-462q8 -31 28.5 -62.5t54 -56.5t80.5 -41t109 -16q80 0 144.5 18.5t123.5 52.5l-26 -247q-47 -23 -116 -38.5t-161 -15.5 q-115 0 -213 35t-172 100.5t-116 156.5t-42 206zM281 1165q70 31 138 89.5t122 136.5q53 -78 121.5 -136.5t138.5 -89.5l-109 -106q-41 20 -77.5 42.5t-73.5 61.5q-37 -39 -74 -61.5t-78 -42.5zM354 569h328q2 7 2 21q0 55 -38 97t-103 42q-68 0 -120 -44t-69 -116z" />
<glyph unicode="&#xeb;" horiz-adv-x="1017" d="M59 469q0 113 39 203t105.5 153.5t153.5 97t186 33.5q96 0 173 -30.5t131 -81.5t82.5 -117.5t28.5 -138.5q0 -47 -10 -92l-121 -119h-462q8 -31 28.5 -62.5t54 -56.5t80.5 -41t109 -16q80 0 144.5 18.5t123.5 52.5l-26 -247q-47 -23 -116 -38.5t-161 -15.5 q-115 0 -213 35t-172 100.5t-116 156.5t-42 206zM266 1174q0 14 12.5 33.5t31 38t38 31.5t33.5 13t33.5 -13t38 -31.5t31 -38t12.5 -33.5q0 -12 -12.5 -32t-31 -38.5t-38 -31.5t-33.5 -13t-33.5 13t-38 31.5t-31 38t-12.5 32.5zM354 569h328q2 7 2 21q0 55 -38 97t-103 42 q-68 0 -120 -44t-69 -116zM578 1174q0 14 13 33.5t31.5 38t38 31.5t31.5 13q14 0 35 -13t39 -31.5t30.5 -38t12.5 -33.5q0 -12 -12.5 -32t-30.5 -38.5t-38.5 -31.5t-35.5 -13q-12 0 -31.5 13t-38 31.5t-31.5 38t-13 32.5z" />
<glyph unicode="&#xec;" horiz-adv-x="538" d="M0 1196l43 182q82 -78 189.5 -130t201.5 -79l-115 -110q-92 23 -163.5 51.5t-155.5 85.5zM119 0v928h303v-928h-303z" />
<glyph unicode="&#xed;" horiz-adv-x="538" d="M109 1169q92 27 200.5 79t188.5 130l43 -182q-82 -57 -155 -86t-165 -51zM119 0v928h303v-928h-303z" />
<glyph unicode="&#xee;" horiz-adv-x="538" d="M10 1165q70 31 138.5 89.5t121.5 136.5q53 -78 121 -136.5t137 -89.5l-108 -106q-41 20 -78 42.5t-72 61.5q-37 -39 -73.5 -61.5t-77.5 -42.5zM119 0v928h303v-928h-303z" />
<glyph unicode="&#xef;" horiz-adv-x="538" d="M-2 1174q0 14 12.5 33.5t30.5 38t37.5 31.5t34.5 13q14 0 33.5 -13t38 -31.5t30.5 -38t12 -33.5q0 -12 -12 -32t-30.5 -38.5t-38 -31.5t-33.5 -13t-34 13t-38 31.5t-30.5 38t-12.5 32.5zM119 0v928h303v-928h-303zM309 1174q0 14 12.5 33.5t31 38t38 31.5t33.5 13 t34.5 -13t39 -31.5t31 -38t12.5 -33.5q0 -12 -12.5 -32t-31 -38.5t-39 -31.5t-34.5 -13t-33.5 13t-38 31.5t-31 38t-12.5 32.5z" />
<glyph unicode="&#xf0;" horiz-adv-x="1075" d="M61 418q0 150 74 251t184 150q43 20 102.5 40t113.5 30l-68 160l-158 -64l-84 209l156 63l-84 201h319l37 -92l127 51l84 -209l-123 -49l217 -518q16 -41 31 -97.5t15 -103.5q0 -106 -35 -193t-97.5 -148.5t-149.5 -95.5t-192 -34q-106 0 -193 35t-148.5 95.5 t-94.5 142.5t-33 176zM352 420q0 -80 50.5 -132t125.5 -52q78 0 128.5 54t50.5 144q0 20 -7.5 48t-18.5 57.5t-24.5 57.5t-23.5 50q-35 -4 -73 -14t-75 -27q-63 -23 -98 -72t-35 -114z" />
<glyph unicode="&#xf1;" horiz-adv-x="1079" d="M92 0v928h264l9 -92q41 53 109.5 84.5t168.5 31.5q76 0 139.5 -23.5t108.5 -66.5t70.5 -105.5t25.5 -138.5v-618h-301v553q0 51 -35 90t-106 39q-70 0 -111 -39t-41 -94v-549h-301zM252 1090l43 172q68 41 129 64.5t143 29.5l19 -119q59 10 118.5 32.5t112.5 55.5 l-41 -170q-68 -45 -129 -67.5t-143 -28.5l-21 119q-55 -8 -114.5 -31t-116.5 -57z" />
<glyph unicode="&#xf2;" horiz-adv-x="1132" d="M61 463q0 109 40 200t109 156.5t161 101t196 35.5t196.5 -35.5t160 -101t107.5 -156.5t40 -200t-40 -199t-107.5 -155.5t-159.5 -101.5t-197 -36q-104 0 -196 36t-161 101.5t-109 155.5t-40 199zM287 1196l43 182q80 -78 188.5 -130t200.5 -79l-113 -110 q-92 23 -164.5 51.5t-154.5 85.5zM352 463q0 -51 17.5 -94t46 -75t68.5 -49.5t83 -17.5t82 17.5t69 49.5t47 75t17 94t-17 95t-47 77t-69 50t-82 17t-83 -17t-68.5 -50t-46 -77t-17.5 -95z" />
<glyph unicode="&#xf3;" horiz-adv-x="1132" d="M61 463q0 109 40 200t109 156.5t161 101t196 35.5t196.5 -35.5t160 -101t107.5 -156.5t40 -200t-40 -199t-107.5 -155.5t-159.5 -101.5t-197 -36q-104 0 -196 36t-161 101.5t-109 155.5t-40 199zM352 463q0 -51 17.5 -94t46 -75t68.5 -49.5t83 -17.5t82 17.5t69 49.5 t47 75t17 94t-17 95t-47 77t-69 50t-82 17t-83 -17t-68.5 -50t-46 -77t-17.5 -95zM420 1169q92 27 200.5 79t188.5 130l43 -182q-82 -57 -154.5 -86t-165.5 -51z" />
<glyph unicode="&#xf4;" horiz-adv-x="1132" d="M61 463q0 109 40 200t109 156.5t161 101t196 35.5t196.5 -35.5t160 -101t107.5 -156.5t40 -200t-40 -199t-107.5 -155.5t-159.5 -101.5t-197 -36q-104 0 -196 36t-161 101.5t-109 155.5t-40 199zM305 1165q70 31 138.5 89.5t121.5 136.5q53 -78 121 -136.5t137 -89.5 l-108 -106q-41 20 -78 42.5t-72 61.5q-37 -39 -73.5 -61.5t-77.5 -42.5zM352 463q0 -51 17.5 -94t46 -75t68.5 -49.5t83 -17.5t82 17.5t69 49.5t47 75t17 94t-17 95t-47 77t-69 50t-82 17t-83 -17t-68.5 -50t-46 -77t-17.5 -95z" />
<glyph unicode="&#xf5;" horiz-adv-x="1132" d="M61 463q0 109 40 200t109 156.5t161 101t196 35.5t196.5 -35.5t160 -101t107.5 -156.5t40 -200t-40 -199t-107.5 -155.5t-159.5 -101.5t-197 -36q-104 0 -196 36t-161 101.5t-109 155.5t-40 199zM285 1090l45 172q68 41 129 64.5t141 29.5l21 -119q57 10 116.5 32.5 t114.5 55.5l-43 -170q-68 -45 -129.5 -67.5t-140.5 -28.5l-21 119q-55 -8 -115.5 -31t-117.5 -57zM352 463q0 -51 17.5 -94t46 -75t68.5 -49.5t83 -17.5t82 17.5t69 49.5t47 75t17 94t-17 95t-47 77t-69 50t-82 17t-83 -17t-68.5 -50t-46 -77t-17.5 -95z" />
<glyph unicode="&#xf6;" horiz-adv-x="1132" d="M61 463q0 109 40 200t109 156.5t161 101t196 35.5t196.5 -35.5t160 -101t107.5 -156.5t40 -200t-40 -199t-107.5 -155.5t-159.5 -101.5t-197 -36q-104 0 -196 36t-161 101.5t-109 155.5t-40 199zM293 1174q0 14 12 33.5t30.5 38t38 31.5t34.5 13q14 0 33.5 -13t38 -31.5 t30.5 -38t12 -33.5q0 -12 -12 -32t-30.5 -38.5t-38 -31.5t-33.5 -13t-34 13t-38.5 31.5t-30.5 38t-12 32.5zM352 463q0 -51 17.5 -94t46 -75t68.5 -49.5t83 -17.5t82 17.5t69 49.5t47 75t17 94t-17 95t-47 77t-69 50t-82 17t-83 -17t-68.5 -50t-46 -77t-17.5 -95zM604 1174 q0 14 12.5 33.5t31 38t38 31.5t33.5 13t34.5 -13t39 -31.5t31 -38t12.5 -33.5q0 -12 -12.5 -32t-31 -38.5t-39 -31.5t-34.5 -13t-33.5 13t-38 31.5t-31 38t-12.5 32.5z" />
<glyph unicode="&#xf7;" horiz-adv-x="925" d="M68 451v229h790v-229h-790zM324 236q0 16 15 40.5t36.5 46t46 37t41.5 15.5q16 0 39.5 -15.5t45 -37t37 -46t15.5 -40.5t-15.5 -41t-37 -46.5t-45 -37t-39.5 -15.5t-41 15.5t-46.5 37t-36.5 46t-15 41.5zM324 895q0 16 15 41t36.5 46.5t46 36.5t41.5 15q16 0 39.5 -15 t45 -36.5t37 -46.5t15.5 -41t-15.5 -41t-37 -46.5t-45 -36.5t-39.5 -15t-41 15t-46.5 36.5t-36.5 46.5t-15 41z" />
<glyph unicode="&#xf8;" horiz-adv-x="1126" d="M61 463q0 109 40 200t109 156.5t161 101t196 35.5q143 0 258 -65l82 102l101 -84l-78 -96q66 -66 103.5 -155t37.5 -195q0 -109 -40 -199t-107.5 -155.5t-159.5 -101.5t-197 -36q-72 0 -138.5 17.5t-123.5 50.5l-84 -105l-100 84l80 99q-66 66 -103 153.5t-37 192.5z M322 463q0 -80 38 -146l314 385q-47 27 -107 27q-49 0 -94 -19.5t-79 -55.5t-53 -85t-19 -106zM457 225q53 -27 110 -26q49 0 93.5 19.5t78 55t54 84t20.5 105.5q0 43 -11 81t-32 70z" />
<glyph unicode="&#xf9;" horiz-adv-x="1079" d="M92 309v619h301v-553q0 -51 35 -90t107 -39q70 0 110.5 39t40.5 94v549h301v-928h-264l-8 92q-41 -53 -109.5 -85t-169.5 -32q-76 0 -139.5 24t-108.5 67t-70.5 104t-25.5 139zM250 1196l43 182q82 -78 189.5 -130t201.5 -79l-115 -110q-92 23 -163.5 51.5t-155.5 85.5z " />
<glyph unicode="&#xfa;" horiz-adv-x="1079" d="M92 309v619h301v-553q0 -51 35 -90t107 -39q70 0 110.5 39t40.5 94v549h301v-928h-264l-8 92q-41 -53 -109.5 -85t-169.5 -32q-76 0 -139.5 24t-108.5 67t-70.5 104t-25.5 139zM397 1169q94 27 202 79t189 130l41 -182q-82 -57 -154.5 -86t-162.5 -51z" />
<glyph unicode="&#xfb;" horiz-adv-x="1079" d="M92 309v619h301v-553q0 -51 35 -90t107 -39q70 0 110.5 39t40.5 94v549h301v-928h-264l-8 92q-41 -53 -109.5 -85t-169.5 -32q-76 0 -139.5 24t-108.5 67t-70.5 104t-25.5 139zM281 1165q70 31 138 89.5t122 136.5q53 -78 121.5 -136.5t138.5 -89.5l-109 -106 q-41 20 -77.5 42.5t-73.5 61.5q-37 -39 -74 -61.5t-78 -42.5z" />
<glyph unicode="&#xfc;" horiz-adv-x="1079" d="M92 309v619h301v-553q0 -51 35 -90t107 -39q70 0 110.5 39t40.5 94v549h301v-928h-264l-8 92q-41 -53 -109.5 -85t-169.5 -32q-76 0 -139.5 24t-108.5 67t-70.5 104t-25.5 139zM272 1174q0 14 12.5 33.5t31 38t38 31.5t33.5 13t33.5 -13t38 -31.5t31 -38t12.5 -33.5 q0 -12 -12.5 -32t-31 -38.5t-38 -31.5t-33.5 -13t-33.5 13t-38 31.5t-31 38t-12.5 32.5zM584 1174q0 14 13 33.5t31.5 38t38 31.5t31.5 13q14 0 35 -13t39.5 -31.5t30.5 -38t12 -33.5q0 -12 -12 -32t-30.5 -38.5t-39 -31.5t-35.5 -13q-12 0 -31.5 13t-38 31.5t-31.5 38 t-13 32.5z" />
<glyph unicode="&#xfd;" horiz-adv-x="1034" d="M31 928h297l137 -363q16 -41 29.5 -85t27.5 -95h4q12 49 25.5 93t30.5 85l139 365h283l-326 -848q-94 -246 -213 -388.5t-287 -183.5l-123 195q53 18 98.5 44t83 66t72.5 97t68 137zM381 1169q92 27 200.5 79t188.5 130l43 -182q-82 -57 -154.5 -86t-164.5 -51z" />
<glyph unicode="&#xfe;" horiz-adv-x="1128" d="M102 -473v1931h291v-557q80 51 207 51q82 0 166 -31.5t150.5 -93t108.5 -150.5t42 -202q0 -115 -38 -207t-105.5 -158.5t-158.5 -102.5t-198 -36q-59 0 -102 11.5t-72 27.5v-483h-291zM393 287q29 -25 72 -41.5t96 -16.5q45 0 85 17.5t69.5 48.5t46 73t16.5 93t-16.5 93 t-46 72.5t-69.5 48t-85 17.5q-53 0 -95 -17.5t-73 -45.5v-342z" />
<glyph unicode="&#xff;" horiz-adv-x="1034" d="M31 928h297l137 -363q16 -41 29.5 -85t27.5 -95h4q12 49 25.5 93t30.5 85l139 365h283l-326 -848q-94 -246 -213 -388.5t-287 -183.5l-123 195q53 18 98.5 44t83 66t72.5 97t68 137zM252 1167q0 14 12 34t30.5 38t38 31.5t34.5 13.5q14 0 33.5 -13.5t38 -31.5t30.5 -38 t12 -34q0 -12 -12 -31.5t-30.5 -38t-38 -31.5t-33.5 -13t-34 13t-38.5 31.5t-30.5 38t-12 31.5zM563 1167q0 14 12.5 34t31 38t38 31.5t33.5 13.5t34.5 -13.5t39 -31.5t31 -38t12.5 -34q0 -12 -12.5 -31.5t-31 -38t-39 -31.5t-34.5 -13t-33.5 13t-38 31.5t-31 38t-12.5 31.5 z" />
<glyph unicode="&#x152;" horiz-adv-x="1935" d="M72 655q0 158 59 284t156.5 215t224.5 136t262 47q92 0 182.5 -25.5t161.5 -72.5l2 68h717v-260h-446v-261h364v-264h-364v-262h503v-260h-774l-2 70q-72 -49 -162 -74t-182 -25q-135 0 -262 47.5t-224.5 136.5t-156.5 216t-59 284zM395 655q0 -90 32 -162.5t84 -125 t121.5 -81t145.5 -28.5q90 0 174 34t140 91v543q-55 57 -138.5 91t-175.5 34q-76 0 -145.5 -29t-121.5 -80t-84 -125t-32 -162z" />
<glyph unicode="&#x153;" horiz-adv-x="1728" d="M59 465q0 109 40 200t108.5 155.5t162 100t197.5 35.5q102 0 193.5 -34.5t157.5 -100.5q66 66 152.5 100.5t182.5 34.5t173 -30.5t131.5 -81.5t83 -117.5t28.5 -138.5q0 -47 -10 -92l-121 -119h-461q8 -31 27.5 -61.5t53.5 -55t82 -40t112 -15.5q80 0 142 16.5t122 50.5 l-27 -247q-47 -23 -114.5 -39.5t-161.5 -16.5q-117 0 -217.5 37t-171.5 107q-66 -68 -158 -105t-199 -37q-104 0 -197.5 36t-162 101.5t-108.5 155.5t-40 201zM352 463q0 -51 17.5 -94t46 -75t68.5 -49.5t83 -17.5t82 17.5t69 49.5t47 75t17 94t-17 95t-47 77t-69 50t-82 17 t-83 -17t-68.5 -50t-46 -77t-17.5 -95zM1067 569h328q0 4 1 9.5t1 11.5q0 55 -39 97t-105 42q-68 0 -119 -44t-67 -116z" />
<glyph unicode="&#x178;" horiz-adv-x="1275" d="M-4 1307h338l215 -316q23 -35 48.5 -76t45.5 -79h4q23 39 49.5 80.5t48.5 74.5l216 316h315l-485 -723v-584h-308v578zM317 1562q0 16 15.5 40t37 45.5t44 36.5t38.5 15t39 -15t44.5 -36.5t37 -45.5t15.5 -40t-15.5 -38.5t-37 -44t-44 -37t-39.5 -15.5q-16 0 -38.5 15.5 t-44 37t-37 44t-15.5 38.5zM684 1562q0 16 15.5 40t37 45.5t44 36.5t38.5 15t40 -15t45.5 -36.5t36.5 -45.5t15 -40t-15 -38.5t-36.5 -44t-45.5 -37t-40 -15.5t-38.5 15.5t-44 37t-37 44t-15.5 38.5z" />
<glyph unicode="&#x2c6;" d="M152 1149q82 37 162.5 105.5t142.5 160.5q61 -92 142 -160.5t163 -105.5l-127 -125q-49 23 -92 50.5t-86 72.5q-43 -45 -86 -72.5t-92 -50.5z" />
<glyph unicode="&#x2dc;" d="M123 1061l51 203q80 47 151.5 74.5t168.5 35.5l22 -141q68 10 137.5 37.5t134.5 66.5l-49 -200q-80 -53 -151.5 -79t-167.5 -34l-25 139q-66 -10 -136.5 -35.5t-135.5 -66.5z" />
<glyph unicode="&#x2000;" horiz-adv-x="955" />
<glyph unicode="&#x2001;" horiz-adv-x="1911" />
<glyph unicode="&#x2002;" horiz-adv-x="955" />
<glyph unicode="&#x2003;" horiz-adv-x="1911" />
<glyph unicode="&#x2004;" horiz-adv-x="637" />
<glyph unicode="&#x2005;" horiz-adv-x="477" />
<glyph unicode="&#x2006;" horiz-adv-x="318" />
<glyph unicode="&#x2007;" horiz-adv-x="318" />
<glyph unicode="&#x2008;" horiz-adv-x="238" />
<glyph unicode="&#x2009;" horiz-adv-x="382" />
<glyph unicode="&#x200a;" horiz-adv-x="106" />
<glyph unicode="&#x2010;" horiz-adv-x="671" d="M68 451v229h536v-229h-536z" />
<glyph unicode="&#x2011;" horiz-adv-x="671" d="M68 451v229h536v-229h-536z" />
<glyph unicode="&#x2012;" horiz-adv-x="671" d="M68 451v229h536v-229h-536z" />
<glyph unicode="&#x2013;" horiz-adv-x="1208" d="M68 451v229h1073v-229h-1073z" />
<glyph unicode="&#x2014;" horiz-adv-x="1744" d="M68 451v229h1611v-229h-1611z" />
<glyph unicode="&#x2018;" horiz-adv-x="450" d="M57 1020q0 43 22.5 102.5t59.5 122t83 120.5t93 101l99 -16q-59 -68 -100.5 -145.5t-51.5 -143.5q18 -4 41 -19.5t43.5 -37t34.5 -45t14 -39.5q0 -23 -19.5 -52.5t-46 -55t-55 -43t-49.5 -17.5q-18 0 -45.5 17.5t-55.5 43t-47.5 54t-19.5 53.5z" />
<glyph unicode="&#x2019;" horiz-adv-x="450" d="M37 877q59 68 99 146.5t52 143.5q-18 2 -40.5 18.5t-43 38t-35 45t-14.5 40.5q0 23 19.5 51.5t46 54t55.5 43t49 17.5q18 0 47 -17.5t56.5 -42t47 -53t19.5 -53.5q0 -43 -23.5 -102.5t-60.5 -122t-84 -122t-94 -102.5z" />
<glyph unicode="&#x201a;" horiz-adv-x="450" d="M37 -291q59 68 99 146.5t52 144.5q-18 2 -40.5 18.5t-43 38t-35 45t-14.5 39.5q0 23 19.5 51.5t46 54t55.5 43t49 17.5q18 0 47 -17.5t56.5 -42t47 -53t19.5 -53.5q0 -43 -23.5 -102t-60.5 -121.5t-84 -122t-94 -102.5z" />
<glyph unicode="&#x201c;" horiz-adv-x="870" d="M57 1020q0 43 22.5 102.5t59.5 122t83 120.5t93 101l99 -16q-59 -68 -100.5 -145.5t-51.5 -143.5q18 -4 41 -19.5t43.5 -37t34.5 -45t14 -39.5q0 -23 -19.5 -52.5t-46 -55t-55 -43t-49.5 -17.5q-18 0 -45.5 17.5t-55.5 43t-47.5 54t-19.5 53.5zM477 1020q0 43 22.5 102.5 t59.5 122t84 121.5t94 102l99 -18q-59 -68 -100.5 -145.5t-53.5 -141.5q18 -4 40.5 -20.5t44 -38t36 -45t14.5 -39.5q0 -23 -19.5 -52.5t-46 -55t-56 -43t-48.5 -17.5q-18 0 -47 17.5t-56.5 43t-47 54t-19.5 53.5z" />
<glyph unicode="&#x201d;" horiz-adv-x="872" d="M37 877q59 68 99 146.5t52 143.5q-18 2 -40.5 18.5t-43 38t-35 45t-14.5 40.5q0 23 19.5 51.5t46 54t55.5 43t49 17.5q16 0 45 -17.5t56.5 -42t48 -53t20.5 -53.5q0 -43 -23.5 -102.5t-60.5 -122t-84 -122t-94 -102.5zM457 879q59 68 100 145.5t53 142.5 q-18 2 -41.5 19.5t-44 39t-35 44t-14.5 39.5q0 23 19.5 51.5t46 54t55.5 43t49 17.5q18 0 47 -17.5t56.5 -42t47 -53t19.5 -53.5q0 -43 -23.5 -101.5t-60.5 -122t-83 -123t-93 -102.5z" />
<glyph unicode="&#x201e;" horiz-adv-x="872" d="M31 -291q57 68 98 146.5t53 144.5q-18 2 -40.5 18.5t-43 38t-35 45t-14.5 39.5q0 23 19.5 51.5t46 54t55.5 43t49 17.5q16 0 45 -17.5t56.5 -42t48 -53t20.5 -53.5q0 -43 -23.5 -102t-60.5 -121.5t-84 -122t-94 -102.5zM451 -289q59 68 100 145.5t53 143.5 q-18 2 -41.5 18.5t-44 38t-35 45t-14.5 39.5q0 23 19.5 51.5t46 54t55 43t49.5 17.5q18 0 47 -17.5t56.5 -42t47 -53t19.5 -53.5q0 -43 -23.5 -102t-60.5 -121.5t-83 -122t-93 -102.5z" />
<glyph unicode="&#x2022;" horiz-adv-x="860" d="M78 563q0 76 27.5 139.5t75.5 108.5t111.5 70.5t137.5 25.5t138.5 -25.5t112.5 -70.5t75.5 -108.5t27.5 -139.5q0 -78 -27.5 -141.5t-75.5 -108.5t-112.5 -70.5t-138.5 -25.5t-137.5 25.5t-111.5 70.5t-75.5 108.5t-27.5 141.5z" />
<glyph unicode="&#x2026;" horiz-adv-x="1290" d="M55 139q0 20 18.5 49t45 55.5t56.5 45t50 18.5t50 -18.5t56.5 -45t45 -55.5t18.5 -49t-18.5 -49t-45 -55.5t-56 -45t-50.5 -18.5q-20 0 -50 18.5t-56.5 45t-45 55.5t-18.5 49zM475 139q0 20 18.5 49t45 55.5t55.5 45t51 18.5q20 0 50 -18.5t56.5 -45t45 -55.5t18.5 -49 t-18.5 -49t-45 -55.5t-56 -45t-50.5 -18.5q-23 0 -51.5 18.5t-55 45t-45 55.5t-18.5 49zM895 139q0 20 18.5 49t45 55.5t56 45t50.5 18.5q20 0 50 -18.5t56.5 -45t45 -55.5t18.5 -49t-18.5 -49t-45 -55.5t-56.5 -45t-50 -18.5t-50 18.5t-56.5 45t-45 55.5t-18.5 49z" />
<glyph unicode="&#x202f;" horiz-adv-x="382" />
<glyph unicode="&#x2039;" horiz-adv-x="534" d="M-16 567q111 76 200.5 172.5t157.5 206.5l150 -149q-31 -63 -77 -123t-93 -107q47 -47 93 -106.5t77 -122.5l-150 -150q-68 111 -158 208.5t-200 170.5z" />
<glyph unicode="&#x203a;" horiz-adv-x="534" d="M43 338q31 63 76 122.5t94 106.5q-49 47 -94 106.5t-76 123.5l150 149q135 -225 356 -379q-111 -74 -201 -171t-155 -208z" />
<glyph unicode="&#x205f;" horiz-adv-x="477" />
<glyph unicode="&#x2122;" horiz-adv-x="890" d="M41 1212v95h307v-97h-102v-282h-105v284h-100zM379 928l31 379h86l108 -213l107 213h86l30 -379h-104l-14 172l-86 -172h-43l-84 168l-13 -168h-104z" />
<glyph unicode="&#x25fc;" horiz-adv-x="931" d="M0 0v932h932v-932h-932z" />
<hkern u1="&#x21;" u2="&#x32;" k="-23069" />
<hkern u1="&#x22;" u2="&#xf0;" k="1051" />
<hkern u1="&#x22;" u2="&#xec;" k="30935" />
<hkern u1="&#x22;" u2="&#xe8;" k="7866" />
<hkern u1="&#x22;" u2="&#xe5;" k="-30407" />
<hkern u1="&#x22;" u2="&#xe4;" k="25168" />
<hkern u1="&#x22;" u2="&#xe3;" k="28314" />
<hkern u1="&#x22;" u2="&#xe0;" k="-27261" />
<hkern u1="&#x22;" u2="&#xdf;" k="-29358" />
<hkern u1="&#x22;" u2="&#xd1;" k="-27785" />
<hkern u1="&#x22;" u2="&#xd0;" k="5769" />
<hkern u1="&#x22;" u2="&#xce;" k="29362" />
<hkern u1="&#x22;" u2="&#xb8;" k="13634" />
<hkern u1="&#x22;" u2="&#xb5;" k="-25688" />
<hkern u1="&#x22;" u2="&#xa6;" k="23071" />
<hkern u1="&#x22;" u2="&#x38;" k="11010" />
<hkern u1="&#x25;" u2="&#xf9;" k="25692" />
<hkern u1="&#x25;" u2="&#xec;" k="-30407" />
<hkern u1="&#x25;" u2="&#xe5;" k="-28834" />
<hkern u1="&#x25;" u2="&#xd8;" k="-29358" />
<hkern u1="&#x26;" u2="&#xf9;" k="3148" />
<hkern u1="&#x26;" u2="&#xf2;" k="-23591" />
<hkern u1="&#x26;" u2="&#xea;" k="19925" />
<hkern u1="&#x26;" u2="&#xc7;" k="17828" />
<hkern u1="&#x27;" u2="&#xf3;" k="-27261" />
<hkern u1="&#x27;" u2="&#xf0;" k="1051" />
<hkern u1="&#x27;" u2="&#xed;" k="25168" />
<hkern u1="&#x27;" u2="&#xec;" k="28314" />
<hkern u1="&#x27;" u2="&#xe8;" k="-27261" />
<hkern u1="&#x27;" u2="&#xe5;" k="-28310" />
<hkern u1="&#x27;" u2="&#xe0;" k="6818" />
<hkern u1="&#x27;" u2="&#xdf;" k="-27785" />
<hkern u1="&#x27;" u2="&#xd1;" k="-29358" />
<hkern u1="&#x27;" u2="&#xd0;" k="5769" />
<hkern u1="&#x27;" u2="&#xb8;" k="13634" />
<hkern u1="&#x27;" u2="&#xb5;" k="-25688" />
<hkern u1="&#x27;" u2="&#x38;" k="11010" />
<hkern u1="&#x29;" u2="&#xfa;" k="11536" />
<hkern u1="&#x29;" u2="&#xf8;" k="-29358" />
<hkern u1="&#x29;" u2="&#xf0;" k="30935" />
<hkern u1="&#x29;" u2="&#xe8;" k="6818" />
<hkern u1="&#x29;" u2="&#xe7;" k="5245" />
<hkern u1="&#x29;" u2="&#x3d;" k="9437" />
<hkern u1="&#x2a;" u2="&#x201a;" k="30411" />
<hkern u1="&#x2a;" u2="&#xdf;" k="28314" />
<hkern u1="&#x2a;" u2="&#xde;" k="20974" />
<hkern u1="&#x2a;" u2="&#xc4;" k="29362" />
<hkern u1="&#x2a;" u2="&#x28;" k="-17826" />
<hkern u1="&#x2c;" u2="&#xe1;" k="23071" />
<hkern u1="&#x2c;" u2="&#xdb;" k="8915" />
<hkern u1="&#x2c;" u2="&#xce;" k="-26737" />
<hkern u1="&#x2c;" u2="&#xc8;" k="25692" />
<hkern u1="&#x2c;" u2="&#xc1;" k="3148" />
<hkern u1="&#x2c;" u2="&#xc0;" k="30935" />
<hkern u1="&#x2c;" u2="&#xbf;" k="-9435" />
<hkern u1="&#x2c;" u2="&#xba;" k="-8387" />
<hkern u1="&#x2c;" u2="&#xb7;" k="-30407" />
<hkern u1="&#x2c;" u2="&#xad;" k="18876" />
<hkern u1="&#x2c;" u2="&#xab;" k="19925" />
<hkern u1="&#x2c;" u2="&#xa8;" k="22546" />
<hkern u1="&#x2c;" u2="Y" k="-20969" />
<hkern u1="&#x2c;" u2="M" k="-12057" />
<hkern u1="&#x2c;" u2="L" k="-23067" />
<hkern u1="&#x2c;" u2="E" k="-24115" />
<hkern u1="&#x2d;" u2="&#xf3;" k="25692" />
<hkern u1="&#x2d;" u2="&#xed;" k="-12057" />
<hkern u1="&#x2d;" u2="&#xe7;" k="2099" />
<hkern u1="&#x2d;" u2="&#xda;" k="21498" />
<hkern u1="&#x2d;" u2="&#xd5;" k="28314" />
<hkern u1="&#x2d;" u2="&#xce;" k="8915" />
<hkern u1="&#x2d;" u2="&#xcd;" k="22022" />
<hkern u1="&#x2d;" u2="&#xc4;" k="-18348" />
<hkern u1="&#x2d;" u2="&#xb0;" k="30935" />
<hkern u1="&#x2e;" u2="&#xe1;" k="23071" />
<hkern u1="&#x2e;" u2="&#xdb;" k="8915" />
<hkern u1="&#x2e;" u2="&#xce;" k="-26737" />
<hkern u1="&#x2e;" u2="&#xc8;" k="25692" />
<hkern u1="&#x2e;" u2="&#xc1;" k="3148" />
<hkern u1="&#x2e;" u2="&#xc0;" k="30935" />
<hkern u1="&#x2e;" u2="&#xbf;" k="-9435" />
<hkern u1="&#x2e;" u2="&#xba;" k="-8387" />
<hkern u1="&#x2e;" u2="&#xb7;" k="-30407" />
<hkern u1="&#x2e;" u2="&#xad;" k="19925" />
<hkern u1="&#x2e;" u2="&#xa2;" k="17828" />
<hkern u1="&#x2e;" u2="Y" k="-25688" />
<hkern u1="&#x2e;" u2="M" k="-12057" />
<hkern u1="&#x2e;" u2="L" k="-23067" />
<hkern u1="&#x2e;" u2="E" k="-24115" />
<hkern u1="&#x2f;" u2="&#x2019;" k="19401" />
<hkern u1="&#x2f;" u2="&#x2c6;" k="18352" />
<hkern u1="&#x2f;" u2="&#xec;" k="29362" />
<hkern u1="&#x2f;" u2="&#xdf;" k="-28310" />
<hkern u1="&#x2f;" u2="&#xd3;" k="7342" />
<hkern u1="&#x2f;" u2="&#xd1;" k="30935" />
<hkern u1="&#x2f;" u2="&#xce;" k="1575" />
<hkern u1="&#x2f;" u2="&#xba;" k="2623" />
<hkern u1="&#x2f;" u2="&#xb0;" k="-18348" />
<hkern u1="&#x2f;" u2="z" k="-30407" />
<hkern u1="&#x2f;" u2="j" k="14158" />
<hkern u1="&#x30;" u2="&#xf3;" k="-25164" />
<hkern u1="&#x30;" u2="&#xf1;" k="-18348" />
<hkern u1="&#x30;" u2="&#xec;" k="-522" />
<hkern u1="&#x30;" u2="&#xe5;" k="-29358" />
<hkern u1="&#x31;" u2="&#xec;" k="526" />
<hkern u1="&#x31;" u2="&#xd1;" k="-29358" />
<hkern u1="&#x32;" u2="&#xf3;" k="-27261" />
<hkern u1="&#x32;" u2="&#xec;" k="-28310" />
<hkern u1="&#x32;" u2="&#xe5;" k="-28834" />
<hkern u1="&#x32;" u2="&#xde;" k="-21494" />
<hkern u1="&#x33;" u2="&#xf9;" k="17304" />
<hkern u1="&#x33;" u2="&#xf3;" k="-28310" />
<hkern u1="&#x34;" u2="&#xf8;" k="-23591" />
<hkern u1="&#x34;" u2="&#xf3;" k="-25164" />
<hkern u1="&#x34;" u2="&#xe8;" k="-522" />
<hkern u1="&#x34;" u2="&#xe5;" k="-21494" />
<hkern u1="&#x34;" u2="&#xe0;" k="526" />
<hkern u1="&#x34;" u2="&#xd1;" k="-20969" />
<hkern u1="&#x34;" u2="&#xce;" k="-10484" />
<hkern u1="&#x34;" u2="&#xc4;" k="17304" />
<hkern u1="&#x34;" u2="&#xb7;" k="-29358" />
<hkern u1="&#x35;" u2="&#xf6;" k="-18348" />
<hkern u1="&#x35;" u2="&#xec;" k="526" />
<hkern u1="&#x36;" u2="&#xf8;" k="-25164" />
<hkern u1="&#x36;" u2="&#xf0;" k="-522" />
<hkern u1="&#x36;" u2="&#xe2;" k="-18348" />
<hkern u1="&#x36;" u2="&#xd8;" k="-20969" />
<hkern u1="&#x36;" u2="&#xd1;" k="-21494" />
<hkern u1="&#x36;" u2="&#xc8;" k="17304" />
<hkern u1="&#x36;" u2="&#xa9;" k="-29358" />
<hkern u1="&#x37;" u2="&#xfd;" k="-27261" />
<hkern u1="&#x37;" u2="&#xec;" k="-28834" />
<hkern u1="&#x37;" u2="&#xe5;" k="-29358" />
<hkern u1="&#x37;" u2="&#xe2;" k="-18348" />
<hkern u1="&#x37;" u2="&#xdf;" k="-27785" />
<hkern u1="&#x37;" u2="&#xde;" k="17304" />
<hkern u1="&#x37;" u2="&#xd1;" k="-28310" />
<hkern u1="&#x38;" u2="&#xf3;" k="-20969" />
<hkern u1="&#x38;" u2="&#xf1;" k="-18348" />
<hkern u1="&#x38;" u2="&#xec;" k="-25164" />
<hkern u1="&#x38;" u2="&#xe4;" k="-522" />
<hkern u1="&#x38;" u2="&#xdf;" k="-29358" />
<hkern u1="&#x39;" u2="&#xf9;" k="-20969" />
<hkern u1="&#x39;" u2="&#xf3;" k="-26737" />
<hkern u1="&#x39;" u2="&#xec;" k="-29882" />
<hkern u1="&#x39;" u2="&#xdb;" k="-25164" />
<hkern u1="&#x3a;" u2="&#xe5;" k="25168" />
<hkern u1="&#x3a;" u2="&#xce;" k="17828" />
<hkern u1="&#x3b;" u2="&#xf6;" k="18352" />
<hkern u1="&#x3b;" u2="&#xce;" k="17828" />
<hkern u1="&#x3f;" u2="&#xf8;" k="23595" />
<hkern u1="&#x3f;" u2="&#xf6;" k="20974" />
<hkern u1="&#x3f;" u2="&#xce;" k="29886" />
<hkern u1="&#x3f;" u2="&#x33;" k="-17826" />
<hkern u1="A" u2="&#x2014;" k="-24115" />
<hkern u1="A" u2="&#x153;" k="-8911" />
<hkern u1="A" u2="&#xf6;" k="29362" />
<hkern u1="A" u2="&#xe7;" k="-24639" />
<hkern u1="A" u2="&#xe1;" k="-18348" />
<hkern u1="A" u2="&#xd6;" k="25168" />
<hkern u1="A" u2="&#xce;" k="18352" />
<hkern u1="A" u2="&#xc9;" k="19401" />
<hkern u1="A" u2="&#xbb;" k="20974" />
<hkern u1="A" u2="&#xb5;" k="19925" />
<hkern u1="A" u2="&#xaa;" k="-8387" />
<hkern u1="A" u2="&#xa8;" k="16779" />
<hkern u1="A" u2="&#xa1;" k="-31980" />
<hkern u1="A" u2="`" k="30411" />
<hkern u1="C" u2="&#xf9;" k="20974" />
<hkern u1="C" u2="&#xf1;" k="25692" />
<hkern u1="C" u2="&#xf0;" k="-31980" />
<hkern u1="C" u2="&#xeb;" k="-22542" />
<hkern u1="C" u2="&#xe7;" k="22022" />
<hkern u1="C" u2="&#xe3;" k="-20445" />
<hkern u1="C" u2="&#xe2;" k="-18348" />
<hkern u1="C" u2="&#xe1;" k="21498" />
<hkern u1="C" u2="&#xdf;" k="18876" />
<hkern u1="C" u2="&#xd8;" k="-8911" />
<hkern u1="C" u2="&#xd4;" k="16779" />
<hkern u1="C" u2="&#xd3;" k="18352" />
<hkern u1="C" u2="&#xd1;" k="25168" />
<hkern u1="C" u2="&#xc4;" k="30935" />
<hkern u1="G" u2="&#xf9;" k="20974" />
<hkern u1="G" u2="&#xf3;" k="18876" />
<hkern u1="G" u2="&#xf1;" k="25692" />
<hkern u1="G" u2="&#xf0;" k="-31980" />
<hkern u1="G" u2="&#xec;" k="-18348" />
<hkern u1="G" u2="&#xeb;" k="-22542" />
<hkern u1="G" u2="&#xe7;" k="22022" />
<hkern u1="G" u2="&#xe3;" k="-20445" />
<hkern u1="G" u2="&#xe2;" k="-7862" />
<hkern u1="G" u2="&#xe1;" k="21498" />
<hkern u1="G" u2="&#xe0;" k="19925" />
<hkern u1="G" u2="&#xdf;" k="-24639" />
<hkern u1="G" u2="&#xda;" k="25168" />
<hkern u1="G" u2="&#xd8;" k="-8911" />
<hkern u1="G" u2="&#xd3;" k="18352" />
<hkern u1="G" u2="&#xce;" k="30935" />
<hkern u1="G" u2="&#xc8;" k="16779" />
<hkern u1="J" u2="&#xec;" k="-8911" />
<hkern u1="J" u2="&#xe8;" k="-31980" />
<hkern u1="J" u2="&#xe3;" k="-8387" />
<hkern u1="J" u2="&#xe2;" k="28314" />
<hkern u1="J" u2="&#xdc;" k="526" />
<hkern u1="J" u2="&#x33;" k="-24642" />
<hkern u1="J" u2="&#x32;" k="21496" />
<hkern u1="J" u2="&#x28;" k="-7340" />
<hkern u1="M" u2="&#xf4;" k="-8387" />
<hkern u1="M" u2="&#xe2;" k="-20445" />
<hkern u1="M" u2="&#xd8;" k="29362" />
<hkern u1="O" u2="&#xf9;" k="20974" />
<hkern u1="O" u2="&#xf6;" k="-20445" />
<hkern u1="O" u2="&#xf3;" k="18876" />
<hkern u1="O" u2="&#xf1;" k="25692" />
<hkern u1="O" u2="&#xf0;" k="-31980" />
<hkern u1="O" u2="&#xeb;" k="-24639" />
<hkern u1="O" u2="&#xe7;" k="22022" />
<hkern u1="O" u2="&#xe2;" k="-8911" />
<hkern u1="O" u2="&#xe1;" k="21498" />
<hkern u1="O" u2="&#xe0;" k="19925" />
<hkern u1="O" u2="&#xda;" k="25168" />
<hkern u1="O" u2="&#xd3;" k="18352" />
<hkern u1="O" u2="&#xce;" k="-7862" />
<hkern u1="O" u2="&#xc8;" k="16779" />
<hkern u1="Q" u2="&#xf9;" k="20974" />
<hkern u1="Q" u2="&#xf3;" k="18876" />
<hkern u1="Q" u2="&#xf0;" k="-20445" />
<hkern u1="Q" u2="&#xeb;" k="-25164" />
<hkern u1="Q" u2="&#xe7;" k="22022" />
<hkern u1="Q" u2="&#xe2;" k="-7862" />
<hkern u1="Q" u2="&#xe1;" k="21498" />
<hkern u1="Q" u2="&#xe0;" k="19925" />
<hkern u1="Q" u2="&#xda;" k="25168" />
<hkern u1="Q" u2="&#xd8;" k="-8911" />
<hkern u1="Q" u2="&#xd3;" k="18352" />
<hkern u1="Q" u2="&#xce;" k="30935" />
<hkern u1="Q" u2="&#xc8;" k="16779" />
<hkern u1="S" u2="&#xfc;" k="18352" />
<hkern u1="S" u2="&#xf9;" k="-20445" />
<hkern u1="S" u2="&#xec;" k="20449" />
<hkern u1="S" u2="&#xe1;" k="-8387" />
<hkern u1="T" u2="&#x153;" k="13109" />
<hkern u1="T" u2="&#xec;" k="-20445" />
<hkern u1="T" u2="&#xe8;" k="19925" />
<hkern u1="T" u2="&#xe0;" k="22546" />
<hkern u1="T" u2="&#xdf;" k="22022" />
<hkern u1="T" u2="&#xd2;" k="-1571" />
<hkern u1="T" u2="&#xce;" k="29362" />
<hkern u1="T" u2="&#xc8;" k="21498" />
<hkern u1="T" u2="&#xc4;" k="-24639" />
<hkern u1="T" u2="&#xb5;" k="23595" />
<hkern u1="T" u2="&#xad;" k="-25164" />
<hkern u1="T" u2="&#xab;" k="-24115" />
<hkern u1="T" u2="&#xa6;" k="-7862" />
<hkern u1="T" u2="&#x28;" k="-31457" />
<hkern u1="T" u2="&#x23;" k="17302" />
<hkern u1="U" u2="&#xeb;" k="-20445" />
<hkern u1="V" u2="&#x153;" k="-1571" />
<hkern u1="V" u2="&#xf3;" k="23071" />
<hkern u1="V" u2="&#xec;" k="-20445" />
<hkern u1="V" u2="&#xe7;" k="-24639" />
<hkern u1="V" u2="&#xdf;" k="20974" />
<hkern u1="V" u2="&#xda;" k="29362" />
<hkern u1="V" u2="&#xc9;" k="30411" />
<hkern u1="V" u2="&#xc8;" k="23595" />
<hkern u1="V" u2="&#xc1;" k="-25164" />
<hkern u1="V" u2="&#xb8;" k="-23591" />
<hkern u1="V" u2="&#xa6;" k="-7862" />
<hkern u1="V" u2="&#xa4;" k="-24115" />
<hkern u1="V" u2="&#x31;" k="-8389" />
<hkern u1="V" u2="&#x28;" k="17302" />
<hkern u1="W" u2="&#xf3;" k="23071" />
<hkern u1="W" u2="&#xf2;" k="22022" />
<hkern u1="W" u2="&#xe7;" k="-24639" />
<hkern u1="W" u2="&#xdf;" k="20974" />
<hkern u1="W" u2="&#xda;" k="29362" />
<hkern u1="W" u2="&#xd8;" k="-24115" />
<hkern u1="W" u2="&#xd2;" k="23595" />
<hkern u1="W" u2="&#xce;" k="30411" />
<hkern u1="W" u2="&#xc1;" k="-25164" />
<hkern u1="W" u2="&#xb8;" k="-23591" />
<hkern u1="W" u2="&#xb0;" k="-7862" />
<hkern u1="W" u2="&#xa6;" k="-24115" />
<hkern u1="W" u2="&#x30;" k="-8389" />
<hkern u1="W" u2="&#x23;" k="17302" />
<hkern u1="X" u2="&#xf6;" k="-31980" />
<hkern u1="X" u2="&#xe7;" k="29362" />
<hkern u1="X" u2="&#xdb;" k="-7862" />
<hkern u1="X" u2="&#xd8;" k="28838" />
<hkern u1="X" u2="&#xd3;" k="23071" />
<hkern u1="X" u2="&#xce;" k="-24639" />
<hkern u1="Y" u2="&#xe2;" k="16779" />
<hkern u1="Y" u2="&#xdf;" k="-24639" />
<hkern u1="Y" u2="&#xd8;" k="20449" />
<hkern u1="Y" u2="&#xd3;" k="25168" />
<hkern u1="Y" u2="&#xce;" k="30935" />
<hkern u1="Y" u2="&#xcd;" k="22022" />
<hkern u1="Y" u2="&#xc8;" k="22546" />
<hkern u1="Y" u2="&#xc7;" k="29362" />
<hkern u1="Y" u2="&#xc1;" k="21498" />
<hkern u1="Y" u2="&#xae;" k="23595" />
<hkern u1="Y" u2="&#xa8;" k="30411" />
<hkern u1="Y" u2="&#xa2;" k="-25164" />
<hkern u1="Y" u2="&#x7e;" k="13109" />
<hkern u1="Y" u2="x" k="-23591" />
<hkern u1="Y" u2="j" k="-7862" />
<hkern u1="Y" u2="&#x26;" k="-8389" />
<hkern u1="Z" u2="&#xfa;" k="-7862" />
<hkern u1="\" u2="&#x2019;" k="11536" />
<hkern u1="\" u2="&#x2c6;" k="8915" />
<hkern u1="\" u2="&#x153;" k="4196" />
<hkern u1="\" u2="&#xec;" k="22546" />
<hkern u1="\" u2="&#xe2;" k="20974" />
<hkern u1="\" u2="&#xd8;" k="3672" />
<hkern u1="\" u2="&#xce;" k="2099" />
<hkern u1="\" u2="&#xc4;" k="1051" />
<hkern u1="\" u2="&#xba;" k="3148" />
<hkern u1="\" u2="&#xb0;" k="5245" />
<hkern u1="\" u2="&#xa6;" k="-27261" />
<hkern u1="\" u2="&#x7e;" k="6818" />
<hkern u1="\" u2="j" k="5769" />
<hkern u1="\" u2="`" k="6294" />
<hkern u1="\" u2="&#x28;" k="11534" />
<hkern u1="]" u2="&#xf8;" k="-29358" />
<hkern u1="]" u2="&#xf0;" k="-18348" />
<hkern u1="]" u2="&#xe8;" k="1575" />
<hkern u1="]" u2="I" k="9437" />
<hkern u1="a" u2="&#xfa;" k="11536" />
<hkern u1="a" u2="&#xf9;" k="-20969" />
<hkern u1="a" u2="&#xf6;" k="1575" />
<hkern u1="a" u2="&#xf1;" k="23071" />
<hkern u1="a" u2="&#xf0;" k="11536" />
<hkern u1="a" u2="&#xec;" k="4721" />
<hkern u1="a" u2="&#xe9;" k="21498" />
<hkern u1="a" u2="&#xe8;" k="-7862" />
<hkern u1="a" u2="&#xe7;" k="526" />
<hkern u1="a" u2="&#xe2;" k="19401" />
<hkern u1="a" u2="&#xdd;" k="-8387" />
<hkern u1="a" u2="&#xd8;" k="18352" />
<hkern u1="a" u2="&#xc4;" k="-8911" />
<hkern u1="a" u2="&#xbb;" k="19925" />
<hkern u1="a" u2="&#xb0;" k="17304" />
<hkern u1="a" u2="&#xae;" k="28314" />
<hkern u1="c" u2="&#x2019;" k="29886" />
<hkern u1="c" u2="&#x153;" k="17304" />
<hkern u1="c" u2="&#xfa;" k="4196" />
<hkern u1="c" u2="&#xf6;" k="3148" />
<hkern u1="c" u2="&#xf2;" k="-20969" />
<hkern u1="c" u2="&#xf1;" k="526" />
<hkern u1="c" u2="&#xec;" k="1051" />
<hkern u1="c" u2="&#xe9;" k="20974" />
<hkern u1="c" u2="&#xe8;" k="-7862" />
<hkern u1="c" u2="&#xe7;" k="23071" />
<hkern u1="c" u2="&#xe3;" k="-25164" />
<hkern u1="c" u2="&#xd8;" k="18352" />
<hkern u1="c" u2="&#xd0;" k="-24115" />
<hkern u1="c" u2="&#xa9;" k="-8911" />
<hkern u1="c" u2="&#xa3;" k="19925" />
<hkern u1="c" u2="&#xa2;" k="-18348" />
<hkern u1="d" u2="&#x2019;" k="29886" />
<hkern u1="d" u2="&#x153;" k="17304" />
<hkern u1="d" u2="&#xfa;" k="4196" />
<hkern u1="d" u2="&#xf6;" k="3148" />
<hkern u1="d" u2="&#xf1;" k="526" />
<hkern u1="d" u2="&#xec;" k="1051" />
<hkern u1="d" u2="&#xe9;" k="20974" />
<hkern u1="d" u2="&#xe8;" k="-7862" />
<hkern u1="d" u2="&#xe3;" k="-25164" />
<hkern u1="d" u2="&#xd8;" k="18352" />
<hkern u1="d" u2="&#xd0;" k="-18348" />
<hkern u1="d" u2="&#xa8;" k="-8911" />
<hkern u1="d" u2="&#xa3;" k="19925" />
<hkern u1="e" u2="&#x2019;" k="29886" />
<hkern u1="e" u2="&#x153;" k="17304" />
<hkern u1="e" u2="&#xfa;" k="4196" />
<hkern u1="e" u2="&#xf6;" k="3148" />
<hkern u1="e" u2="&#xf1;" k="11012" />
<hkern u1="e" u2="&#xec;" k="526" />
<hkern u1="e" u2="&#xe9;" k="20974" />
<hkern u1="e" u2="&#xe8;" k="-7862" />
<hkern u1="e" u2="&#xe7;" k="23071" />
<hkern u1="e" u2="&#xd8;" k="18352" />
<hkern u1="e" u2="&#xd0;" k="-8387" />
<hkern u1="e" u2="&#xcf;" k="23071" />
<hkern u1="e" u2="&#xba;" k="-8911" />
<hkern u1="e" u2="&#xa3;" k="19925" />
<hkern u1="f" u2="&#xf3;" k="-18348" />
<hkern u1="f" u2="&#xec;" k="13109" />
<hkern u1="g" u2="&#x153;" k="11536" />
<hkern u1="g" u2="&#xfa;" k="4196" />
<hkern u1="g" u2="&#xf6;" k="3148" />
<hkern u1="g" u2="&#xf1;" k="-7862" />
<hkern u1="g" u2="&#xe7;" k="22546" />
<hkern u1="g" u2="&#xd8;" k="-8387" />
<hkern u1="g" u2="&#xd1;" k="-25164" />
<hkern u1="g" u2="&#xd0;" k="11536" />
<hkern u1="g" u2="&#xa6;" k="-8911" />
<hkern u1="i" u2="&#xf6;" k="-21494" />
<hkern u1="j" u2="P" k="12059" />
<hkern u1="j" u2="&#x40;" k="23069" />
<hkern u1="j" u2="&#x38;" k="12059" />
<hkern u1="j" u2="&#x2c;" k="1049" />
<hkern u1="j" u2="&#x25;" k="9961" />
<hkern u1="l" u2="&#xf2;" k="-18348" />
<hkern u1="m" u2="&#xf6;" k="18352" />
<hkern u1="m" u2="&#xf0;" k="-25164" />
<hkern u1="m" u2="&#xcd;" k="19925" />
<hkern u1="m" u2="&#xc4;" k="-18348" />
<hkern u1="m" u2="&#xc1;" k="20974" />
<hkern u1="n" u2="&#xf0;" k="-25164" />
<hkern u1="n" u2="&#xec;" k="18352" />
<hkern u1="n" u2="&#xce;" k="19925" />
<hkern u1="n" u2="&#xc4;" k="-18348" />
<hkern u1="n" u2="&#xb7;" k="20974" />
<hkern u1="o" u2="&#x153;" k="17304" />
<hkern u1="o" u2="&#xfa;" k="4196" />
<hkern u1="o" u2="&#xf6;" k="3148" />
<hkern u1="o" u2="&#xf1;" k="526" />
<hkern u1="o" u2="&#xec;" k="1051" />
<hkern u1="o" u2="&#xe9;" k="20974" />
<hkern u1="o" u2="&#xe8;" k="-7862" />
<hkern u1="o" u2="&#xe7;" k="23071" />
<hkern u1="o" u2="&#xd8;" k="18352" />
<hkern u1="o" u2="&#xd0;" k="-18348" />
<hkern u1="o" u2="&#xa5;" k="-8911" />
<hkern u1="o" u2="&#xa3;" k="19925" />
<hkern u1="p" u2="&#xf6;" k="-18348" />
<hkern u1="p" u2="&#xf0;" k="-25164" />
<hkern u1="p" u2="&#xce;" k="19925" />
<hkern u1="p" u2="&#xba;" k="-8387" />
<hkern u1="q" u2="&#x153;" k="17304" />
<hkern u1="q" u2="&#xfa;" k="4196" />
<hkern u1="q" u2="&#xf6;" k="3148" />
<hkern u1="q" u2="&#xf1;" k="526" />
<hkern u1="q" u2="&#xec;" k="1051" />
<hkern u1="q" u2="&#xe9;" k="20974" />
<hkern u1="q" u2="&#xe8;" k="-7862" />
<hkern u1="q" u2="&#xe7;" k="23071" />
<hkern u1="q" u2="&#xd8;" k="18352" />
<hkern u1="q" u2="&#xd0;" k="-18348" />
<hkern u1="q" u2="&#xa6;" k="-8911" />
<hkern u1="q" u2="&#xa3;" k="19925" />
<hkern u1="r" u2="&#xf8;" k="-18348" />
<hkern u1="r" u2="&#xf0;" k="-25164" />
<hkern u1="r" u2="&#xec;" k="18352" />
<hkern u1="r" u2="&#xe2;" k="19401" />
<hkern u1="r" u2="&#xc8;" k="19925" />
<hkern u1="r" u2="&#xc1;" k="20974" />
<hkern u1="r" u2="&#xbb;" k="-8911" />
<hkern u1="r" u2="&#xba;" k="-7862" />
<hkern u1="s" u2="&#x153;" k="13634" />
<hkern u1="s" u2="&#xfa;" k="-20445" />
<hkern u1="s" u2="&#xf3;" k="20974" />
<hkern u1="s" u2="&#xf1;" k="-7862" />
<hkern u1="s" u2="&#xe8;" k="-8387" />
<hkern u1="s" u2="&#xe2;" k="18352" />
<hkern u1="s" u2="&#xe0;" k="-20969" />
<hkern u1="s" u2="&#xdd;" k="3672" />
<hkern u1="s" u2="&#xd8;" k="19401" />
<hkern u1="s" u2="&#xc1;" k="19925" />
<hkern u1="s" u2="&#xa6;" k="-8911" />
<hkern u1="t" u2="&#xf3;" k="-18348" />
<hkern u1="t" u2="&#xf2;" k="-24639" />
<hkern u1="t" u2="&#xed;" k="-25164" />
<hkern u1="t" u2="&#xec;" k="13109" />
<hkern u1="t" u2="&#xe7;" k="18352" />
<hkern u1="t" u2="&#xce;" k="14158" />
<hkern u1="u" u2="&#xf6;" k="18352" />
<hkern u1="u" u2="&#xf0;" k="-25164" />
<hkern u1="u" u2="&#xec;" k="19401" />
<hkern u1="u" u2="&#xe2;" k="-20445" />
<hkern u1="u" u2="&#xce;" k="19925" />
<hkern u1="u" u2="&#xc1;" k="28314" />
<hkern u1="u" u2="&#xb0;" k="-8387" />
<hkern u1="v" u2="&#xf6;" k="12061" />
<hkern u1="v" u2="&#xf1;" k="-20445" />
<hkern u1="v" u2="&#xf0;" k="-23591" />
<hkern u1="v" u2="&#xec;" k="6294" />
<hkern u1="v" u2="&#xe8;" k="16779" />
<hkern u1="v" u2="&#xe7;" k="20974" />
<hkern u1="v" u2="&#xe5;" k="4721" />
<hkern u1="v" u2="&#xe4;" k="13109" />
<hkern u1="v" u2="&#xe0;" k="-8387" />
<hkern u1="v" u2="&#xde;" k="-13629" />
<hkern u1="v" u2="&#xdd;" k="13634" />
<hkern u1="v" u2="&#xdc;" k="-21494" />
<hkern u1="v" u2="&#xce;" k="14158" />
<hkern u1="v" u2="&#xc4;" k="-24639" />
<hkern u1="v" u2="&#xbb;" k="17304" />
<hkern u1="v" u2="&#xba;" k="-25164" />
<hkern u1="w" u2="&#xf6;" k="526" />
<hkern u1="w" u2="&#xf1;" k="-24115" />
<hkern u1="w" u2="&#xf0;" k="-23591" />
<hkern u1="w" u2="&#xec;" k="-13629" />
<hkern u1="w" u2="&#xe8;" k="16779" />
<hkern u1="w" u2="&#xe7;" k="13109" />
<hkern u1="w" u2="&#xe1;" k="4721" />
<hkern u1="w" u2="&#xe0;" k="-8387" />
<hkern u1="w" u2="&#xdd;" k="13634" />
<hkern u1="w" u2="&#xdc;" k="-21494" />
<hkern u1="w" u2="&#xd8;" k="14158" />
<hkern u1="w" u2="&#xce;" k="30935" />
<hkern u1="w" u2="&#xc4;" k="-24639" />
<hkern u1="w" u2="&#xbb;" k="17304" />
<hkern u1="w" u2="&#xba;" k="-25164" />
<hkern u1="x" u2="&#xed;" k="-25164" />
<hkern u1="x" u2="&#xec;" k="-8911" />
<hkern u1="x" u2="&#xe9;" k="-7862" />
<hkern u1="x" u2="&#xce;" k="18352" />
<hkern u1="x" u2="&#xc4;" k="13634" />
<hkern u1="y" u2="&#xf6;" k="12061" />
<hkern u1="y" u2="&#xf1;" k="-18348" />
<hkern u1="y" u2="&#xec;" k="6294" />
<hkern u1="y" u2="&#xeb;" k="13109" />
<hkern u1="y" u2="&#xe9;" k="4721" />
<hkern u1="y" u2="&#xe7;" k="27789" />
<hkern u1="y" u2="&#xe2;" k="-13629" />
<hkern u1="y" u2="&#xdd;" k="13634" />
<hkern u1="y" u2="&#xdc;" k="-23591" />
<hkern u1="y" u2="&#xda;" k="28314" />
<hkern u1="y" u2="&#xd8;" k="14158" />
<hkern u1="y" u2="&#xce;" k="30935" />
<hkern u1="y" u2="&#xbb;" k="16779" />
<hkern u1="y" u2="&#xba;" k="-25164" />
<hkern u1="z" u2="&#xf8;" k="-8387" />
<hkern u1="z" u2="&#xf6;" k="6818" />
<hkern u1="z" u2="&#xf1;" k="-7862" />
<hkern u1="z" u2="&#xf0;" k="-25164" />
<hkern u1="z" u2="&#xe8;" k="-20969" />
<hkern u1="z" u2="&#xe6;" k="-27261" />
<hkern u1="z" u2="&#xe2;" k="-8911" />
<hkern u1="z" u2="&#xc1;" k="20974" />
<hkern u1="z" u2="&#xbb;" k="19925" />
<hkern u1="z" u2="&#xb6;" k="13109" />
<hkern u1="&#x7d;" u2="&#xf8;" k="11536" />
<hkern u1="&#x7d;" u2="&#xf0;" k="23071" />
<hkern u1="&#x7d;" u2="&#xe8;" k="5245" />
<hkern u1="&#x7d;" u2="&#xe0;" k="1575" />
<hkern u1="&#x7d;" u2="&#xd8;" k="3148" />
<hkern u1="&#x7d;" u2="&#x3e;" k="9437" />
<hkern u1="&#xae;" u2="&#x2c6;" k="30411" />
<hkern u1="&#xae;" u2="&#xf9;" k="-522" />
<hkern u1="&#xae;" u2="&#xf3;" k="12061" />
<hkern u1="&#xae;" u2="&#xf2;" k="7866" />
<hkern u1="&#xae;" u2="&#xec;" k="17828" />
<hkern u1="&#xae;" u2="&#xe5;" k="-25688" />
<hkern u1="&#xae;" u2="&#xdf;" k="1051" />
<hkern u1="&#xae;" u2="&#xd8;" k="18876" />
<hkern u1="&#xae;" u2="&#xd5;" k="21498" />
<hkern u1="&#xae;" u2="&#xd1;" k="4721" />
<hkern u1="&#xae;" u2="&#xc4;" k="13634" />
<hkern u1="&#xae;" u2="&#x21;" k="11010" />
<hkern u1="&#xb0;" u2="&#xf3;" k="13109" />
<hkern u1="&#xb0;" u2="&#xec;" k="-30407" />
<hkern u1="&#xb0;" u2="&#xe5;" k="-28834" />
<hkern u1="&#xb0;" u2="&#xdf;" k="-28310" />
<hkern u1="&#xb0;" u2="&#xc4;" k="-29358" />
<hkern u1="&#xbf;" u2="&#x2022;" k="30411" />
<hkern u1="&#xc6;" u2="&#x2019;" k="18352" />
<hkern u1="&#xc6;" u2="&#xd8;" k="29362" />
<hkern u1="&#xc6;" u2="&#xce;" k="23071" />
<hkern u1="&#xc6;" u2="&#xba;" k="28314" />
<hkern u1="&#xc6;" u2="&#xb0;" k="23595" />
<hkern u1="&#xc6;" u2="&#x7e;" k="20974" />
<hkern u1="&#xc6;" u2="`" k="21498" />
<hkern u1="&#xd8;" u2="&#xf9;" k="20974" />
<hkern u1="&#xd8;" u2="&#xf3;" k="18352" />
<hkern u1="&#xd8;" u2="&#xe0;" k="19925" />
<hkern u1="&#xd8;" u2="&#xc8;" k="12061" />
<hkern u1="&#xe6;" u2="&#xfa;" k="11536" />
<hkern u1="&#xe6;" u2="&#xf6;" k="3148" />
<hkern u1="&#xe6;" u2="&#xe7;" k="28314" />
<hkern u1="&#xf8;" u2="&#x153;" k="11536" />
<hkern u1="&#xf8;" u2="&#xfa;" k="4196" />
<hkern u1="&#xf8;" u2="&#xf6;" k="3148" />
<hkern u1="&#xf8;" u2="&#xf1;" k="5245" />
<hkern u1="&#xf8;" u2="&#xec;" k="-522" />
<hkern u1="&#xf8;" u2="&#xe9;" k="20974" />
<hkern u1="&#xf8;" u2="&#xe7;" k="23071" />
<hkern u1="&#xf8;" u2="&#xd8;" k="18352" />
<hkern u1="&#xf8;" u2="&#xa3;" k="19925" />
<hkern u1="&#x152;" u2="&#xf3;" k="19401" />
<hkern u1="&#x152;" u2="&#xec;" k="18876" />
<hkern u1="&#x152;" u2="&#xe2;" k="25692" />
<hkern u1="&#x152;" u2="&#xd8;" k="20974" />
<hkern u1="&#x152;" u2="&#xd3;" k="18352" />
<hkern u1="&#x152;" u2="&#xc4;" k="-23591" />
<hkern u1="&#x153;" u2="&#xf6;" k="30935" />
<hkern u1="&#x153;" u2="&#xf1;" k="8915" />
<hkern u1="&#x153;" u2="&#xec;" k="1051" />
<hkern u1="&#x153;" u2="&#xe2;" k="5245" />
<hkern u1="&#x2013;" u2="&#xd8;" k="28314" />
<hkern u1="&#x2014;" u2="&#xf6;" k="-22018" />
<hkern u1="&#x2019;" u2="&#xf8;" k="1051" />
<hkern u1="&#x2019;" u2="&#xf6;" k="25692" />
<hkern u1="&#x2019;" u2="&#xf0;" k="-23591" />
<hkern u1="&#x2019;" u2="&#xee;" k="6818" />
<hkern u1="&#x2019;" u2="&#xed;" k="20974" />
<hkern u1="&#x2019;" u2="&#xe0;" k="4721" />
<hkern u1="&#x2019;" u2="&#xda;" k="21498" />
<hkern u1="&#x2019;" u2="&#xd0;" k="23595" />
<hkern u1="&#x2019;" u2="&#xcf;" k="13634" />
<hkern u1="&#x2019;" u2="&#xb5;" k="31984" />
<hkern u1="&#x2019;" u2="&#xb4;" k="30411" />
<hkern u1="&#x2019;" u2="&#x38;" k="11010" />
<hkern u1="&#x2019;" u2="&#x26;" k="23069" />
<hkern u1="&#x201d;" u2="&#xf8;" k="22022" />
<hkern u1="&#x201d;" u2="&#xf7;" k="-29358" />
<hkern u1="&#x201d;" u2="&#xf6;" k="25692" />
<hkern u1="&#x201d;" u2="&#xee;" k="1051" />
<hkern u1="&#x201d;" u2="&#xe6;" k="11536" />
<hkern u1="&#x201d;" u2="&#xe3;" k="19925" />
<hkern u1="&#x201d;" u2="&#xe0;" k="4721" />
<hkern u1="&#x201d;" u2="&#xd8;" k="29886" />
<hkern u1="&#x201d;" u2="&#xd0;" k="13634" />
<hkern u1="&#x201d;" u2="&#xb5;" k="31984" />
<hkern u1="&#x201d;" u2="&#xa9;" k="30411" />
<hkern u1="&#x201d;" u2="&#xa6;" k="23595" />
<hkern u1="&#x201d;" u2="&#x38;" k="11010" />
<hkern u1="&#x201d;" u2="&#x26;" k="23069" />
<hkern u1="&#x2026;" u2="&#x2019;" k="20974" />
<hkern u1="&#x2026;" u2="&#xb0;" k="18352" />
<hkern u1="&#x2026;" u2="&#xa6;" k="19401" />
<hkern u1="&#x2026;" u2="j" k="-27261" />
<hkern u1="&#x2122;" u2="&#x153;" k="5769" />
<hkern u1="&#x2122;" u2="&#xec;" k="10488" />
<hkern u1="&#x2122;" u2="&#xe5;" k="-522" />
<hkern u1="&#x2122;" u2="&#xdf;" k="3672" />
<hkern u1="&#x2122;" u2="&#xd1;" k="22022" />
<hkern u1="&#x2122;" u2="&#xcb;" k="11536" />
<hkern u1="&#x2122;" u2="&#xc4;" k="7866" />
<hkern u1="&#x2122;" u2="&#xbd;" k="6818" />
<hkern u1="&#x2122;" u2="&#xb7;" k="4196" />
<hkern u1="&#x2122;" u2="&#xb0;" k="11536" />
<hkern u1="&#x2122;" u2="&#xa2;" k="24644" />
<hkern u1="&#x2122;" u2="&#x3c;" k="11534" />
<hkern u1="&#x2122;" u2="&#x21;" k="18350" />
</font>
</defs></svg> 